,Filename,Labels
0,M01_01_00.jpg,Monkey Pox
1,M01_01_01.jpg,Monkey Pox
2,M01_01_02.jpg,Monkey Pox
3,M01_01_03.jpg,Monkey Pox
4,M01_01_04.jpg,Monkey Pox
5,M01_01_05.jpg,Monkey Pox
6,M01_01_06.jpg,Monkey Pox
7,M01_01_07.jpg,Monkey Pox
8,M01_01_08.jpg,Monkey Pox
9,M01_01_09.jpg,Monkey Pox
10,M01_01_10.jpg,Monkey Pox
11,M01_01_11.jpg,Monkey Pox
12,M01_01_12.jpg,Monkey Pox
13,M01_01_13.jpg,Monkey Pox
14,M01_02_00.jpg,Monkey Pox
15,M01_02_01.jpg,Monkey Pox
16,M01_02_02.jpg,Monkey Pox
17,M01_02_03.jpg,Monkey Pox
18,M01_02_04.jpg,Monkey Pox
19,M01_02_05.jpg,Monkey Pox
20,M01_02_06.jpg,Monkey Pox
21,M01_02_07.jpg,Monkey Pox
22,M01_02_08.jpg,Monkey Pox
23,M01_02_09.jpg,Monkey Pox
24,M01_02_10.jpg,Monkey Pox
25,M01_02_11.jpg,Monkey Pox
26,M01_02_12.jpg,Monkey Pox
27,M01_02_13.jpg,Monkey Pox
28,M01_03_00.jpg,Monkey Pox
29,M01_03_01.jpg,Monkey Pox
30,M01_03_02.jpg,Monkey Pox
31,M01_03_03.jpg,Monkey Pox
32,M01_03_04.jpg,Monkey Pox
33,M01_03_05.jpg,Monkey Pox
34,M01_03_06.jpg,Monkey Pox
35,M01_03_07.jpg,Monkey Pox
36,M01_03_08.jpg,Monkey Pox
37,M01_03_09.jpg,Monkey Pox
38,M01_03_10.jpg,Monkey Pox
39,M01_03_11.jpg,Monkey Pox
40,M01_03_12.jpg,Monkey Pox
41,M01_03_13.jpg,Monkey Pox
42,M01_04_00.jpg,Monkey Pox
43,M01_04_01.jpg,Monkey Pox
44,M01_04_02.jpg,Monkey Pox
45,M01_04_03.jpg,Monkey Pox
46,M01_04_04.jpg,Monkey Pox
47,M01_04_05.jpg,Monkey Pox
48,M01_04_06.jpg,Monkey Pox
49,M01_04_07.jpg,Monkey Pox
50,M01_04_08.jpg,Monkey Pox
51,M01_04_09.jpg,Monkey Pox
52,M01_04_10.jpg,Monkey Pox
53,M01_04_11.jpg,Monkey Pox
54,M01_04_12.jpg,Monkey Pox
55,M01_04_13.jpg,Monkey Pox
56,M02_01_00.jpg,Monkey Pox
57,M02_01_01.jpg,Monkey Pox
58,M02_01_02.jpg,Monkey Pox
59,M02_01_03.jpg,Monkey Pox
60,M02_01_04.jpg,Monkey Pox
61,M02_01_05.jpg,Monkey Pox
62,M02_01_06.jpg,Monkey Pox
63,M02_01_07.jpg,Monkey Pox
64,M02_01_08.jpg,Monkey Pox
65,M02_01_09.jpg,Monkey Pox
66,M02_01_10.jpg,Monkey Pox
67,M02_01_11.jpg,Monkey Pox
68,M02_01_12.jpg,Monkey Pox
69,M02_01_13.jpg,Monkey Pox
70,M02_02_00.jpg,Monkey Pox
71,M02_02_01.jpg,Monkey Pox
72,M02_02_02.jpg,Monkey Pox
73,M02_02_03.jpg,Monkey Pox
74,M02_02_04.jpg,Monkey Pox
75,M02_02_05.jpg,Monkey Pox
76,M02_02_06.jpg,Monkey Pox
77,M02_02_07.jpg,Monkey Pox
78,M02_02_08.jpg,Monkey Pox
79,M02_02_09.jpg,Monkey Pox
80,M02_02_10.jpg,Monkey Pox
81,M02_02_11.jpg,Monkey Pox
82,M02_02_12.jpg,Monkey Pox
83,M02_02_13.jpg,Monkey Pox
84,M03_01_00.jpg,Monkey Pox
85,M03_01_01.jpg,Monkey Pox
86,M03_01_02.jpg,Monkey Pox
87,M03_01_03.jpg,Monkey Pox
88,M03_01_04.jpg,Monkey Pox
89,M03_01_05.jpg,Monkey Pox
90,M03_01_06.jpg,Monkey Pox
91,M03_01_07.jpg,Monkey Pox
92,M03_01_08.jpg,Monkey Pox
93,M03_01_09.jpg,Monkey Pox
94,M03_01_10.jpg,Monkey Pox
95,M03_01_11.jpg,Monkey Pox
96,M03_01_12.jpg,Monkey Pox
97,M03_01_13.jpg,Monkey Pox
98,M04_01_00.jpg,Monkey Pox
99,M04_01_01.jpg,Monkey Pox
100,M04_01_02.jpg,Monkey Pox
101,M04_01_03.jpg,Monkey Pox
102,M04_01_04.jpg,Monkey Pox
103,M04_01_05.jpg,Monkey Pox
104,M04_01_06.jpg,Monkey Pox
105,M04_01_07.jpg,Monkey Pox
106,M04_01_08.jpg,Monkey Pox
107,M04_01_09.jpg,Monkey Pox
108,M04_01_10.jpg,Monkey Pox
109,M04_01_11.jpg,Monkey Pox
110,M04_01_12.jpg,Monkey Pox
111,M04_01_13.jpg,Monkey Pox
112,M05_01_00.jpg,Monkey Pox
113,M05_01_01.jpg,Monkey Pox
114,M05_01_02.jpg,Monkey Pox
115,M05_01_03.jpg,Monkey Pox
116,M05_01_04.jpg,Monkey Pox
117,M05_01_05.jpg,Monkey Pox
118,M05_01_06.jpg,Monkey Pox
119,M05_01_07.jpg,Monkey Pox
120,M05_01_08.jpg,Monkey Pox
121,M05_01_09.jpg,Monkey Pox
122,M05_01_10.jpg,Monkey Pox
123,M05_01_11.jpg,Monkey Pox
124,M05_01_12.jpg,Monkey Pox
125,M05_01_13.jpg,Monkey Pox
126,M05_02_00.jpg,Monkey Pox
127,M05_02_01.jpg,Monkey Pox
128,M05_02_02.jpg,Monkey Pox
129,M05_02_03.jpg,Monkey Pox
130,M05_02_04.jpg,Monkey Pox
131,M05_02_05.jpg,Monkey Pox
132,M05_02_06.jpg,Monkey Pox
133,M05_02_07.jpg,Monkey Pox
134,M05_02_08.jpg,Monkey Pox
135,M05_02_09.jpg,Monkey Pox
136,M05_02_10.jpg,Monkey Pox
137,M05_02_11.jpg,Monkey Pox
138,M05_02_12.jpg,Monkey Pox
139,M05_02_13.jpg,Monkey Pox
140,M06_01_00.jpg,Monkey Pox
141,M06_01_01.jpg,Monkey Pox
142,M06_01_02.jpg,Monkey Pox
143,M06_01_03.jpg,Monkey Pox
144,M06_01_04.jpg,Monkey Pox
145,M06_01_05.jpg,Monkey Pox
146,M06_01_06.jpg,Monkey Pox
147,M06_01_07.jpg,Monkey Pox
148,M06_01_08.jpg,Monkey Pox
149,M06_01_09.jpg,Monkey Pox
150,M06_01_10.jpg,Monkey Pox
151,M06_01_11.jpg,Monkey Pox
152,M06_01_12.jpg,Monkey Pox
153,M06_01_13.jpg,Monkey Pox
154,M06_02_00.jpg,Monkey Pox
155,M06_02_01.jpg,Monkey Pox
156,M06_02_02.jpg,Monkey Pox
157,M06_02_03.jpg,Monkey Pox
158,M06_02_04.jpg,Monkey Pox
159,M06_02_05.jpg,Monkey Pox
160,M06_02_06.jpg,Monkey Pox
161,M06_02_07.jpg,Monkey Pox
162,M06_02_08.jpg,Monkey Pox
163,M06_02_09.jpg,Monkey Pox
164,M06_02_10.jpg,Monkey Pox
165,M06_02_11.jpg,Monkey Pox
166,M06_02_12.jpg,Monkey Pox
167,M06_02_13.jpg,Monkey Pox
168,M07_01_00.jpg,Monkey Pox
169,M07_01_01.jpg,Monkey Pox
170,M07_01_02.jpg,Monkey Pox
171,M07_01_03.jpg,Monkey Pox
172,M07_01_04.jpg,Monkey Pox
173,M07_01_05.jpg,Monkey Pox
174,M07_01_06.jpg,Monkey Pox
175,M07_01_07.jpg,Monkey Pox
176,M07_01_08.jpg,Monkey Pox
177,M07_01_09.jpg,Monkey Pox
178,M07_01_10.jpg,Monkey Pox
179,M07_01_11.jpg,Monkey Pox
180,M07_01_12.jpg,Monkey Pox
181,M07_01_13.jpg,Monkey Pox
182,M08_01_00.jpg,Monkey Pox
183,M08_01_01.jpg,Monkey Pox
184,M08_01_02.jpg,Monkey Pox
185,M08_01_03.jpg,Monkey Pox
186,M08_01_04.jpg,Monkey Pox
187,M08_01_05.jpg,Monkey Pox
188,M08_01_06.jpg,Monkey Pox
189,M08_01_07.jpg,Monkey Pox
190,M08_01_08.jpg,Monkey Pox
191,M08_01_09.jpg,Monkey Pox
192,M08_01_10.jpg,Monkey Pox
193,M08_01_11.jpg,Monkey Pox
194,M08_01_12.jpg,Monkey Pox
195,M08_01_13.jpg,Monkey Pox
196,M09_01_00.jpg,Monkey Pox
197,M09_01_01.jpg,Monkey Pox
198,M09_01_02.jpg,Monkey Pox
199,M09_01_03.jpg,Monkey Pox
200,M09_01_04.jpg,Monkey Pox
201,M09_01_05.jpg,Monkey Pox
202,M09_01_06.jpg,Monkey Pox
203,M09_01_07.jpg,Monkey Pox
204,M09_01_08.jpg,Monkey Pox
205,M09_01_09.jpg,Monkey Pox
206,M09_01_10.jpg,Monkey Pox
207,M09_01_11.jpg,Monkey Pox
208,M09_01_12.jpg,Monkey Pox
209,M09_01_13.jpg,Monkey Pox
210,M09_02_00.jpg,Monkey Pox
211,M09_02_01.jpg,Monkey Pox
212,M09_02_02.jpg,Monkey Pox
213,M09_02_03.jpg,Monkey Pox
214,M09_02_04.jpg,Monkey Pox
215,M09_02_05.jpg,Monkey Pox
216,M09_02_06.jpg,Monkey Pox
217,M09_02_07.jpg,Monkey Pox
218,M09_02_08.jpg,Monkey Pox
219,M09_02_09.jpg,Monkey Pox
220,M09_02_10.jpg,Monkey Pox
221,M09_02_11.jpg,Monkey Pox
222,M09_02_12.jpg,Monkey Pox
223,M09_02_13.jpg,Monkey Pox
224,M09_03_00.jpg,Monkey Pox
225,M09_03_01.jpg,Monkey Pox
226,M09_03_02.jpg,Monkey Pox
227,M09_03_03.jpg,Monkey Pox
228,M09_03_04.jpg,Monkey Pox
229,M09_03_05.jpg,Monkey Pox
230,M09_03_06.jpg,Monkey Pox
231,M09_03_07.jpg,Monkey Pox
232,M09_03_08.jpg,Monkey Pox
233,M09_03_09.jpg,Monkey Pox
234,M09_03_10.jpg,Monkey Pox
235,M09_03_11.jpg,Monkey Pox
236,M09_03_12.jpg,Monkey Pox
237,M09_03_13.jpg,Monkey Pox
238,M09_04_00.jpg,Monkey Pox
239,M09_04_01.jpg,Monkey Pox
240,M09_04_02.jpg,Monkey Pox
241,M09_04_03.jpg,Monkey Pox
242,M09_04_04.jpg,Monkey Pox
243,M09_04_05.jpg,Monkey Pox
244,M09_04_06.jpg,Monkey Pox
245,M09_04_07.jpg,Monkey Pox
246,M09_04_08.jpg,Monkey Pox
247,M09_04_09.jpg,Monkey Pox
248,M09_04_10.jpg,Monkey Pox
249,M09_04_11.jpg,Monkey Pox
250,M09_04_12.jpg,Monkey Pox
251,M09_04_13.jpg,Monkey Pox
252,M10_01_00.jpg,Monkey Pox
253,M10_01_01.jpg,Monkey Pox
254,M10_01_02.jpg,Monkey Pox
255,M10_01_03.jpg,Monkey Pox
256,M10_01_04.jpg,Monkey Pox
257,M10_01_05.jpg,Monkey Pox
258,M10_01_06.jpg,Monkey Pox
259,M10_01_07.jpg,Monkey Pox
260,M10_01_08.jpg,Monkey Pox
261,M10_01_09.jpg,Monkey Pox
262,M10_01_10.jpg,Monkey Pox
263,M10_01_11.jpg,Monkey Pox
264,M10_01_12.jpg,Monkey Pox
265,M10_01_13.jpg,Monkey Pox
266,M10_02_00.jpg,Monkey Pox
267,M10_02_01.jpg,Monkey Pox
268,M10_02_02.jpg,Monkey Pox
269,M10_02_03.jpg,Monkey Pox
270,M10_02_04.jpg,Monkey Pox
271,M10_02_05.jpg,Monkey Pox
272,M10_02_06.jpg,Monkey Pox
273,M10_02_07.jpg,Monkey Pox
274,M10_02_08.jpg,Monkey Pox
275,M10_02_09.jpg,Monkey Pox
276,M10_02_10.jpg,Monkey Pox
277,M10_02_11.jpg,Monkey Pox
278,M10_02_12.jpg,Monkey Pox
279,M10_02_13.jpg,Monkey Pox
280,M11_01_00.jpg,Monkey Pox
281,M11_01_01.jpg,Monkey Pox
282,M11_01_02.jpg,Monkey Pox
283,M11_01_03.jpg,Monkey Pox
284,M11_01_04.jpg,Monkey Pox
285,M11_01_05.jpg,Monkey Pox
286,M11_01_06.jpg,Monkey Pox
287,M11_01_07.jpg,Monkey Pox
288,M11_01_08.jpg,Monkey Pox
289,M11_01_09.jpg,Monkey Pox
290,M11_01_10.jpg,Monkey Pox
291,M11_01_11.jpg,Monkey Pox
292,M11_01_12.jpg,Monkey Pox
293,M11_01_13.jpg,Monkey Pox
294,M12_01_00.jpg,Monkey Pox
295,M12_01_01.jpg,Monkey Pox
296,M12_01_02.jpg,Monkey Pox
297,M12_01_03.jpg,Monkey Pox
298,M12_01_04.jpg,Monkey Pox
299,M12_01_05.jpg,Monkey Pox
300,M12_01_06.jpg,Monkey Pox
301,M12_01_07.jpg,Monkey Pox
302,M12_01_08.jpg,Monkey Pox
303,M12_01_09.jpg,Monkey Pox
304,M12_01_10.jpg,Monkey Pox
305,M12_01_11.jpg,Monkey Pox
306,M12_01_12.jpg,Monkey Pox
307,M12_01_13.jpg,Monkey Pox
308,M13_01_00.jpg,Monkey Pox
309,M13_01_01.jpg,Monkey Pox
310,M13_01_02.jpg,Monkey Pox
311,M13_01_03.jpg,Monkey Pox
312,M13_01_04.jpg,Monkey Pox
313,M13_01_05.jpg,Monkey Pox
314,M13_01_06.jpg,Monkey Pox
315,M13_01_07.jpg,Monkey Pox
316,M13_01_08.jpg,Monkey Pox
317,M13_01_09.jpg,Monkey Pox
318,M13_01_10.jpg,Monkey Pox
319,M13_01_11.jpg,Monkey Pox
320,M13_01_12.jpg,Monkey Pox
321,M13_01_13.jpg,Monkey Pox
322,M14_01_00.jpg,Monkey Pox
323,M14_01_01.jpg,Monkey Pox
324,M14_01_02.jpg,Monkey Pox
325,M14_01_03.jpg,Monkey Pox
326,M14_01_04.jpg,Monkey Pox
327,M14_01_05.jpg,Monkey Pox
328,M14_01_06.jpg,Monkey Pox
329,M14_01_07.jpg,Monkey Pox
330,M14_01_08.jpg,Monkey Pox
331,M14_01_09.jpg,Monkey Pox
332,M14_01_10.jpg,Monkey Pox
333,M14_01_11.jpg,Monkey Pox
334,M14_01_12.jpg,Monkey Pox
335,M14_01_13.jpg,Monkey Pox
336,M15_01_00.jpg,Monkey Pox
337,M15_01_01.jpg,Monkey Pox
338,M15_01_02.jpg,Monkey Pox
339,M15_01_03.jpg,Monkey Pox
340,M15_01_04.jpg,Monkey Pox
341,M15_01_05.jpg,Monkey Pox
342,M15_01_06.jpg,Monkey Pox
343,M15_01_07.jpg,Monkey Pox
344,M15_01_08.jpg,Monkey Pox
345,M15_01_09.jpg,Monkey Pox
346,M15_01_10.jpg,Monkey Pox
347,M15_01_11.jpg,Monkey Pox
348,M15_01_12.jpg,Monkey Pox
349,M15_01_13.jpg,Monkey Pox
350,M16_01_00.jpg,Monkey Pox
351,M16_01_01.jpg,Monkey Pox
352,M16_01_02.jpg,Monkey Pox
353,M16_01_03.jpg,Monkey Pox
354,M16_01_04.jpg,Monkey Pox
355,M16_01_05.jpg,Monkey Pox
356,M16_01_06.jpg,Monkey Pox
357,M16_01_07.jpg,Monkey Pox
358,M16_01_08.jpg,Monkey Pox
359,M16_01_09.jpg,Monkey Pox
360,M16_01_10.jpg,Monkey Pox
361,M16_01_11.jpg,Monkey Pox
362,M16_01_12.jpg,Monkey Pox
363,M16_01_13.jpg,Monkey Pox
364,M17_01_00.jpg,Monkey Pox
365,M17_01_01.jpg,Monkey Pox
366,M17_01_02.jpg,Monkey Pox
367,M17_01_03.jpg,Monkey Pox
368,M17_01_04.jpg,Monkey Pox
369,M17_01_05.jpg,Monkey Pox
370,M17_01_06.jpg,Monkey Pox
371,M17_01_07.jpg,Monkey Pox
372,M17_01_08.jpg,Monkey Pox
373,M17_01_09.jpg,Monkey Pox
374,M17_01_10.jpg,Monkey Pox
375,M17_01_11.jpg,Monkey Pox
376,M17_01_12.jpg,Monkey Pox
377,M17_01_13.jpg,Monkey Pox
378,M17_02_00.jpg,Monkey Pox
379,M17_02_01.jpg,Monkey Pox
380,M17_02_02.jpg,Monkey Pox
381,M17_02_03.jpg,Monkey Pox
382,M17_02_04.jpg,Monkey Pox
383,M17_02_05.jpg,Monkey Pox
384,M17_02_06.jpg,Monkey Pox
385,M17_02_07.jpg,Monkey Pox
386,M17_02_08.jpg,Monkey Pox
387,M17_02_09.jpg,Monkey Pox
388,M17_02_10.jpg,Monkey Pox
389,M17_02_11.jpg,Monkey Pox
390,M17_02_12.jpg,Monkey Pox
391,M17_02_13.jpg,Monkey Pox
392,M18_01_00.jpg,Monkey Pox
393,M18_01_01.jpg,Monkey Pox
394,M18_01_02.jpg,Monkey Pox
395,M18_01_03.jpg,Monkey Pox
396,M18_01_04.jpg,Monkey Pox
397,M18_01_05.jpg,Monkey Pox
398,M18_01_06.jpg,Monkey Pox
399,M18_01_07.jpg,Monkey Pox
400,M18_01_08.jpg,Monkey Pox
401,M18_01_09.jpg,Monkey Pox
402,M18_01_10.jpg,Monkey Pox
403,M18_01_11.jpg,Monkey Pox
404,M18_01_12.jpg,Monkey Pox
405,M18_01_13.jpg,Monkey Pox
406,M18_02_00.jpg,Monkey Pox
407,M18_02_01.jpg,Monkey Pox
408,M18_02_02.jpg,Monkey Pox
409,M18_02_03.jpg,Monkey Pox
410,M18_02_04.jpg,Monkey Pox
411,M18_02_05.jpg,Monkey Pox
412,M18_02_06.jpg,Monkey Pox
413,M18_02_07.jpg,Monkey Pox
414,M18_02_08.jpg,Monkey Pox
415,M18_02_09.jpg,Monkey Pox
416,M18_02_10.jpg,Monkey Pox
417,M18_02_11.jpg,Monkey Pox
418,M18_02_12.jpg,Monkey Pox
419,M18_02_13.jpg,Monkey Pox
420,M19_01_00.jpg,Monkey Pox
421,M19_01_01.jpg,Monkey Pox
422,M19_01_02.jpg,Monkey Pox
423,M19_01_03.jpg,Monkey Pox
424,M19_01_04.jpg,Monkey Pox
425,M19_01_05.jpg,Monkey Pox
426,M19_01_06.jpg,Monkey Pox
427,M19_01_07.jpg,Monkey Pox
428,M19_01_08.jpg,Monkey Pox
429,M19_01_09.jpg,Monkey Pox
430,M19_01_10.jpg,Monkey Pox
431,M19_01_11.jpg,Monkey Pox
432,M19_01_12.jpg,Monkey Pox
433,M19_01_13.jpg,Monkey Pox
434,M19_02_00.jpg,Monkey Pox
435,M19_02_01.jpg,Monkey Pox
436,M19_02_02.jpg,Monkey Pox
437,M19_02_03.jpg,Monkey Pox
438,M19_02_04.jpg,Monkey Pox
439,M19_02_05.jpg,Monkey Pox
440,M19_02_06.jpg,Monkey Pox
441,M19_02_07.jpg,Monkey Pox
442,M19_02_08.jpg,Monkey Pox
443,M19_02_09.jpg,Monkey Pox
444,M19_02_10.jpg,Monkey Pox
445,M19_02_11.jpg,Monkey Pox
446,M19_02_12.jpg,Monkey Pox
447,M19_02_13.jpg,Monkey Pox
448,M20_01_00.jpg,Monkey Pox
449,M20_01_01.jpg,Monkey Pox
450,M20_01_02.jpg,Monkey Pox
451,M20_01_03.jpg,Monkey Pox
452,M20_01_04.jpg,Monkey Pox
453,M20_01_05.jpg,Monkey Pox
454,M20_01_06.jpg,Monkey Pox
455,M20_01_07.jpg,Monkey Pox
456,M20_01_08.jpg,Monkey Pox
457,M20_01_09.jpg,Monkey Pox
458,M20_01_10.jpg,Monkey Pox
459,M20_01_11.jpg,Monkey Pox
460,M20_01_12.jpg,Monkey Pox
461,M20_01_13.jpg,Monkey Pox
462,M20_02_00.jpg,Monkey Pox
463,M20_02_01.jpg,Monkey Pox
464,M20_02_02.jpg,Monkey Pox
465,M20_02_03.jpg,Monkey Pox
466,M20_02_04.jpg,Monkey Pox
467,M20_02_05.jpg,Monkey Pox
468,M20_02_06.jpg,Monkey Pox
469,M20_02_07.jpg,Monkey Pox
470,M20_02_08.jpg,Monkey Pox
471,M20_02_09.jpg,Monkey Pox
472,M20_02_10.jpg,Monkey Pox
473,M20_02_11.jpg,Monkey Pox
474,M20_02_12.jpg,Monkey Pox
475,M20_02_13.jpg,Monkey Pox
476,M21_01_00.jpg,Monkey Pox
477,M21_01_01.jpg,Monkey Pox
478,M21_01_02.jpg,Monkey Pox
479,M21_01_03.jpg,Monkey Pox
480,M21_01_04.jpg,Monkey Pox
481,M21_01_05.jpg,Monkey Pox
482,M21_01_06.jpg,Monkey Pox
483,M21_01_07.jpg,Monkey Pox
484,M21_01_08.jpg,Monkey Pox
485,M21_01_09.jpg,Monkey Pox
486,M21_01_10.jpg,Monkey Pox
487,M21_01_11.jpg,Monkey Pox
488,M21_01_12.jpg,Monkey Pox
489,M21_01_13.jpg,Monkey Pox
490,M21_02_00.jpg,Monkey Pox
491,M21_02_01.jpg,Monkey Pox
492,M21_02_02.jpg,Monkey Pox
493,M21_02_03.jpg,Monkey Pox
494,M21_02_04.jpg,Monkey Pox
495,M21_02_05.jpg,Monkey Pox
496,M21_02_06.jpg,Monkey Pox
497,M21_02_07.jpg,Monkey Pox
498,M21_02_08.jpg,Monkey Pox
499,M21_02_09.jpg,Monkey Pox
500,M21_02_10.jpg,Monkey Pox
501,M21_02_11.jpg,Monkey Pox
502,M21_02_12.jpg,Monkey Pox
503,M21_02_13.jpg,Monkey Pox
504,M22_01_00.jpg,Monkey Pox
505,M22_01_01.jpg,Monkey Pox
506,M22_01_02.jpg,Monkey Pox
507,M22_01_03.jpg,Monkey Pox
508,M22_01_04.jpg,Monkey Pox
509,M22_01_05.jpg,Monkey Pox
510,M22_01_06.jpg,Monkey Pox
511,M22_01_07.jpg,Monkey Pox
512,M22_01_08.jpg,Monkey Pox
513,M22_01_09.jpg,Monkey Pox
514,M22_01_10.jpg,Monkey Pox
515,M22_01_11.jpg,Monkey Pox
516,M22_01_12.jpg,Monkey Pox
517,M22_01_13.jpg,Monkey Pox
518,M23_01_00.jpg,Monkey Pox
519,M23_01_01.jpg,Monkey Pox
520,M23_01_02.jpg,Monkey Pox
521,M23_01_03.jpg,Monkey Pox
522,M23_01_04.jpg,Monkey Pox
523,M23_01_05.jpg,Monkey Pox
524,M23_01_06.jpg,Monkey Pox
525,M23_01_07.jpg,Monkey Pox
526,M23_01_08.jpg,Monkey Pox
527,M23_01_09.jpg,Monkey Pox
528,M23_01_10.jpg,Monkey Pox
529,M23_01_11.jpg,Monkey Pox
530,M23_01_12.jpg,Monkey Pox
531,M23_01_13.jpg,Monkey Pox
532,M24_01_00.jpg,Monkey Pox
533,M24_01_01.jpg,Monkey Pox
534,M24_01_02.jpg,Monkey Pox
535,M24_01_03.jpg,Monkey Pox
536,M24_01_04.jpg,Monkey Pox
537,M24_01_05.jpg,Monkey Pox
538,M24_01_06.jpg,Monkey Pox
539,M24_01_07.jpg,Monkey Pox
540,M24_01_08.jpg,Monkey Pox
541,M24_01_09.jpg,Monkey Pox
542,M24_01_10.jpg,Monkey Pox
543,M24_01_11.jpg,Monkey Pox
544,M24_01_12.jpg,Monkey Pox
545,M24_01_13.jpg,Monkey Pox
546,M24_02_00.jpg,Monkey Pox
547,M24_02_01.jpg,Monkey Pox
548,M24_02_02.jpg,Monkey Pox
549,M24_02_03.jpg,Monkey Pox
550,M24_02_04.jpg,Monkey Pox
551,M24_02_05.jpg,Monkey Pox
552,M24_02_06.jpg,Monkey Pox
553,M24_02_07.jpg,Monkey Pox
554,M24_02_08.jpg,Monkey Pox
555,M24_02_09.jpg,Monkey Pox
556,M24_02_10.jpg,Monkey Pox
557,M24_02_11.jpg,Monkey Pox
558,M24_02_12.jpg,Monkey Pox
559,M24_02_13.jpg,Monkey Pox
560,M25_01_00.jpg,Monkey Pox
561,M25_01_01.jpg,Monkey Pox
562,M25_01_02.jpg,Monkey Pox
563,M25_01_03.jpg,Monkey Pox
564,M25_01_04.jpg,Monkey Pox
565,M25_01_05.jpg,Monkey Pox
566,M25_01_06.jpg,Monkey Pox
567,M25_01_07.jpg,Monkey Pox
568,M25_01_08.jpg,Monkey Pox
569,M25_01_09.jpg,Monkey Pox
570,M25_01_10.jpg,Monkey Pox
571,M25_01_11.jpg,Monkey Pox
572,M25_01_12.jpg,Monkey Pox
573,M25_01_13.jpg,Monkey Pox
574,M25_02_00.jpg,Monkey Pox
575,M25_02_01.jpg,Monkey Pox
576,M25_02_02.jpg,Monkey Pox
577,M25_02_03.jpg,Monkey Pox
578,M25_02_04.jpg,Monkey Pox
579,M25_02_05.jpg,Monkey Pox
580,M25_02_06.jpg,Monkey Pox
581,M25_02_07.jpg,Monkey Pox
582,M25_02_08.jpg,Monkey Pox
583,M25_02_09.jpg,Monkey Pox
584,M25_02_10.jpg,Monkey Pox
585,M25_02_11.jpg,Monkey Pox
586,M25_02_12.jpg,Monkey Pox
587,M25_02_13.jpg,Monkey Pox
588,M26_01_00.jpg,Monkey Pox
589,M26_01_01.jpg,Monkey Pox
590,M26_01_02.jpg,Monkey Pox
591,M26_01_03.jpg,Monkey Pox
592,M26_01_04.jpg,Monkey Pox
593,M26_01_05.jpg,Monkey Pox
594,M26_01_06.jpg,Monkey Pox
595,M26_01_07.jpg,Monkey Pox
596,M26_01_08.jpg,Monkey Pox
597,M26_01_09.jpg,Monkey Pox
598,M26_01_10.jpg,Monkey Pox
599,M26_01_11.jpg,Monkey Pox
600,M26_01_12.jpg,Monkey Pox
601,M26_01_13.jpg,Monkey Pox
602,M26_02_00.jpg,Monkey Pox
603,M26_02_01.jpg,Monkey Pox
604,M26_02_02.jpg,Monkey Pox
605,M26_02_03.jpg,Monkey Pox
606,M26_02_04.jpg,Monkey Pox
607,M26_02_05.jpg,Monkey Pox
608,M26_02_06.jpg,Monkey Pox
609,M26_02_07.jpg,Monkey Pox
610,M26_02_08.jpg,Monkey Pox
611,M26_02_09.jpg,Monkey Pox
612,M26_02_10.jpg,Monkey Pox
613,M26_02_11.jpg,Monkey Pox
614,M26_02_12.jpg,Monkey Pox
615,M26_02_13.jpg,Monkey Pox
616,M27_01_00.jpg,Monkey Pox
617,M27_01_01.jpg,Monkey Pox
618,M27_01_02.jpg,Monkey Pox
619,M27_01_03.jpg,Monkey Pox
620,M27_01_04.jpg,Monkey Pox
621,M27_01_05.jpg,Monkey Pox
622,M27_01_06.jpg,Monkey Pox
623,M27_01_07.jpg,Monkey Pox
624,M27_01_08.jpg,Monkey Pox
625,M27_01_09.jpg,Monkey Pox
626,M27_01_10.jpg,Monkey Pox
627,M27_01_11.jpg,Monkey Pox
628,M27_01_12.jpg,Monkey Pox
629,M27_01_13.jpg,Monkey Pox
630,M28_01_00.jpg,Monkey Pox
631,M28_01_01.jpg,Monkey Pox
632,M28_01_02.jpg,Monkey Pox
633,M28_01_03.jpg,Monkey Pox
634,M28_01_04.jpg,Monkey Pox
635,M28_01_05.jpg,Monkey Pox
636,M28_01_06.jpg,Monkey Pox
637,M28_01_07.jpg,Monkey Pox
638,M28_01_08.jpg,Monkey Pox
639,M28_01_09.jpg,Monkey Pox
640,M28_01_10.jpg,Monkey Pox
641,M28_01_11.jpg,Monkey Pox
642,M28_01_12.jpg,Monkey Pox
643,M28_01_13.jpg,Monkey Pox
644,M28_02_00.jpg,Monkey Pox
645,M28_02_01.jpg,Monkey Pox
646,M28_02_02.jpg,Monkey Pox
647,M28_02_03.jpg,Monkey Pox
648,M28_02_04.jpg,Monkey Pox
649,M28_02_05.jpg,Monkey Pox
650,M28_02_06.jpg,Monkey Pox
651,M28_02_07.jpg,Monkey Pox
652,M28_02_08.jpg,Monkey Pox
653,M28_02_09.jpg,Monkey Pox
654,M28_02_10.jpg,Monkey Pox
655,M28_02_11.jpg,Monkey Pox
656,M28_02_12.jpg,Monkey Pox
657,M28_02_13.jpg,Monkey Pox
658,M28_03_00.jpg,Monkey Pox
659,M28_03_01.jpg,Monkey Pox
660,M28_03_02.jpg,Monkey Pox
661,M28_03_03.jpg,Monkey Pox
662,M28_03_04.jpg,Monkey Pox
663,M28_03_05.jpg,Monkey Pox
664,M28_03_06.jpg,Monkey Pox
665,M28_03_07.jpg,Monkey Pox
666,M28_03_08.jpg,Monkey Pox
667,M28_03_09.jpg,Monkey Pox
668,M28_03_10.jpg,Monkey Pox
669,M28_03_11.jpg,Monkey Pox
670,M28_03_12.jpg,Monkey Pox
671,M28_03_13.jpg,Monkey Pox
672,M28_04_00.jpg,Monkey Pox
673,M28_04_01.jpg,Monkey Pox
674,M28_04_02.jpg,Monkey Pox
675,M28_04_03.jpg,Monkey Pox
676,M28_04_04.jpg,Monkey Pox
677,M28_04_05.jpg,Monkey Pox
678,M28_04_06.jpg,Monkey Pox
679,M28_04_07.jpg,Monkey Pox
680,M28_04_08.jpg,Monkey Pox
681,M28_04_09.jpg,Monkey Pox
682,M28_04_10.jpg,Monkey Pox
683,M28_04_11.jpg,Monkey Pox
684,M28_04_12.jpg,Monkey Pox
685,M28_04_13.jpg,Monkey Pox
686,M29_01_00.jpg,Monkey Pox
687,M29_01_01.jpg,Monkey Pox
688,M29_01_02.jpg,Monkey Pox
689,M29_01_03.jpg,Monkey Pox
690,M29_01_04.jpg,Monkey Pox
691,M29_01_05.jpg,Monkey Pox
692,M29_01_06.jpg,Monkey Pox
693,M29_01_07.jpg,Monkey Pox
694,M29_01_08.jpg,Monkey Pox
695,M29_01_09.jpg,Monkey Pox
696,M29_01_10.jpg,Monkey Pox
697,M29_01_11.jpg,Monkey Pox
698,M29_01_12.jpg,Monkey Pox
699,M29_01_13.jpg,Monkey Pox
700,M29_02_00.jpg,Monkey Pox
701,M29_02_01.jpg,Monkey Pox
702,M29_02_02.jpg,Monkey Pox
703,M29_02_03.jpg,Monkey Pox
704,M29_02_04.jpg,Monkey Pox
705,M29_02_05.jpg,Monkey Pox
706,M29_02_06.jpg,Monkey Pox
707,M29_02_07.jpg,Monkey Pox
708,M29_02_08.jpg,Monkey Pox
709,M29_02_09.jpg,Monkey Pox
710,M29_02_10.jpg,Monkey Pox
711,M29_02_11.jpg,Monkey Pox
712,M29_02_12.jpg,Monkey Pox
713,M29_02_13.jpg,Monkey Pox
714,M30_01_00.jpg,Monkey Pox
715,M30_01_01.jpg,Monkey Pox
716,M30_01_02.jpg,Monkey Pox
717,M30_01_03.jpg,Monkey Pox
718,M30_01_04.jpg,Monkey Pox
719,M30_01_05.jpg,Monkey Pox
720,M30_01_06.jpg,Monkey Pox
721,M30_01_07.jpg,Monkey Pox
722,M30_01_08.jpg,Monkey Pox
723,M30_01_09.jpg,Monkey Pox
724,M30_01_10.jpg,Monkey Pox
725,M30_01_11.jpg,Monkey Pox
726,M30_01_12.jpg,Monkey Pox
727,M30_01_13.jpg,Monkey Pox
728,M30_02_00.jpg,Monkey Pox
729,M30_02_01.jpg,Monkey Pox
730,M30_02_02.jpg,Monkey Pox
731,M30_02_03.jpg,Monkey Pox
732,M30_02_04.jpg,Monkey Pox
733,M30_02_05.jpg,Monkey Pox
734,M30_02_06.jpg,Monkey Pox
735,M30_02_07.jpg,Monkey Pox
736,M30_02_08.jpg,Monkey Pox
737,M30_02_09.jpg,Monkey Pox
738,M30_02_10.jpg,Monkey Pox
739,M30_02_11.jpg,Monkey Pox
740,M30_02_12.jpg,Monkey Pox
741,M30_02_13.jpg,Monkey Pox
742,M31_01_00.jpg,Monkey Pox
743,M31_01_01.jpg,Monkey Pox
744,M31_01_02.jpg,Monkey Pox
745,M31_01_03.jpg,Monkey Pox
746,M31_01_04.jpg,Monkey Pox
747,M31_01_05.jpg,Monkey Pox
748,M31_01_06.jpg,Monkey Pox
749,M31_01_07.jpg,Monkey Pox
750,M31_01_08.jpg,Monkey Pox
751,M31_01_09.jpg,Monkey Pox
752,M31_01_10.jpg,Monkey Pox
753,M31_01_11.jpg,Monkey Pox
754,M31_01_12.jpg,Monkey Pox
755,M31_01_13.jpg,Monkey Pox
756,M31_02_00.jpg,Monkey Pox
757,M31_02_01.jpg,Monkey Pox
758,M31_02_02.jpg,Monkey Pox
759,M31_02_03.jpg,Monkey Pox
760,M31_02_04.jpg,Monkey Pox
761,M31_02_05.jpg,Monkey Pox
762,M31_02_06.jpg,Monkey Pox
763,M31_02_07.jpg,Monkey Pox
764,M31_02_08.jpg,Monkey Pox
765,M31_02_09.jpg,Monkey Pox
766,M31_02_10.jpg,Monkey Pox
767,M31_02_11.jpg,Monkey Pox
768,M31_02_12.jpg,Monkey Pox
769,M31_02_13.jpg,Monkey Pox
770,M32_01_00.jpg,Monkey Pox
771,M32_01_01.jpg,Monkey Pox
772,M32_01_02.jpg,Monkey Pox
773,M32_01_03.jpg,Monkey Pox
774,M32_01_04.jpg,Monkey Pox
775,M32_01_05.jpg,Monkey Pox
776,M32_01_06.jpg,Monkey Pox
777,M32_01_07.jpg,Monkey Pox
778,M32_01_08.jpg,Monkey Pox
779,M32_01_09.jpg,Monkey Pox
780,M32_01_10.jpg,Monkey Pox
781,M32_01_11.jpg,Monkey Pox
782,M32_01_12.jpg,Monkey Pox
783,M32_01_13.jpg,Monkey Pox
784,M32_02_00.jpg,Monkey Pox
785,M32_02_01.jpg,Monkey Pox
786,M32_02_02.jpg,Monkey Pox
787,M32_02_03.jpg,Monkey Pox
788,M32_02_04.jpg,Monkey Pox
789,M32_02_05.jpg,Monkey Pox
790,M32_02_06.jpg,Monkey Pox
791,M32_02_07.jpg,Monkey Pox
792,M32_02_08.jpg,Monkey Pox
793,M32_02_09.jpg,Monkey Pox
794,M32_02_10.jpg,Monkey Pox
795,M32_02_11.jpg,Monkey Pox
796,M32_02_12.jpg,Monkey Pox
797,M32_02_13.jpg,Monkey Pox
798,M32_03_00.jpg,Monkey Pox
799,M32_03_01.jpg,Monkey Pox
800,M32_03_02.jpg,Monkey Pox
801,M32_03_03.jpg,Monkey Pox
802,M32_03_04.jpg,Monkey Pox
803,M32_03_05.jpg,Monkey Pox
804,M32_03_06.jpg,Monkey Pox
805,M32_03_07.jpg,Monkey Pox
806,M32_03_08.jpg,Monkey Pox
807,M32_03_09.jpg,Monkey Pox
808,M32_03_10.jpg,Monkey Pox
809,M32_03_11.jpg,Monkey Pox
810,M32_03_12.jpg,Monkey Pox
811,M32_03_13.jpg,Monkey Pox
812,M32_04_00.jpg,Monkey Pox
813,M32_04_01.jpg,Monkey Pox
814,M32_04_02.jpg,Monkey Pox
815,M32_04_03.jpg,Monkey Pox
816,M32_04_04.jpg,Monkey Pox
817,M32_04_05.jpg,Monkey Pox
818,M32_04_06.jpg,Monkey Pox
819,M32_04_07.jpg,Monkey Pox
820,M32_04_08.jpg,Monkey Pox
821,M32_04_09.jpg,Monkey Pox
822,M32_04_10.jpg,Monkey Pox
823,M32_04_11.jpg,Monkey Pox
824,M32_04_12.jpg,Monkey Pox
825,M32_04_13.jpg,Monkey Pox
826,M33_01_00.jpg,Monkey Pox
827,M33_01_01.jpg,Monkey Pox
828,M33_01_02.jpg,Monkey Pox
829,M33_01_03.jpg,Monkey Pox
830,M33_01_04.jpg,Monkey Pox
831,M33_01_05.jpg,Monkey Pox
832,M33_01_06.jpg,Monkey Pox
833,M33_01_07.jpg,Monkey Pox
834,M33_01_08.jpg,Monkey Pox
835,M33_01_09.jpg,Monkey Pox
836,M33_01_10.jpg,Monkey Pox
837,M33_01_11.jpg,Monkey Pox
838,M33_01_12.jpg,Monkey Pox
839,M33_01_13.jpg,Monkey Pox
840,M33_02_00.jpg,Monkey Pox
841,M33_02_01.jpg,Monkey Pox
842,M33_02_02.jpg,Monkey Pox
843,M33_02_03.jpg,Monkey Pox
844,M33_02_04.jpg,Monkey Pox
845,M33_02_05.jpg,Monkey Pox
846,M33_02_06.jpg,Monkey Pox
847,M33_02_07.jpg,Monkey Pox
848,M33_02_08.jpg,Monkey Pox
849,M33_02_09.jpg,Monkey Pox
850,M33_02_10.jpg,Monkey Pox
851,M33_02_11.jpg,Monkey Pox
852,M33_02_12.jpg,Monkey Pox
853,M33_02_13.jpg,Monkey Pox
854,M34_01_00.jpg,Monkey Pox
855,M34_01_01.jpg,Monkey Pox
856,M34_01_02.jpg,Monkey Pox
857,M34_01_03.jpg,Monkey Pox
858,M34_01_04.jpg,Monkey Pox
859,M34_01_05.jpg,Monkey Pox
860,M34_01_06.jpg,Monkey Pox
861,M34_01_07.jpg,Monkey Pox
862,M34_01_08.jpg,Monkey Pox
863,M34_01_09.jpg,Monkey Pox
864,M34_01_10.jpg,Monkey Pox
865,M34_01_11.jpg,Monkey Pox
866,M34_01_12.jpg,Monkey Pox
867,M34_01_13.jpg,Monkey Pox
868,M34_02_00.jpg,Monkey Pox
869,M34_02_01.jpg,Monkey Pox
870,M34_02_02.jpg,Monkey Pox
871,M34_02_03.jpg,Monkey Pox
872,M34_02_04.jpg,Monkey Pox
873,M34_02_05.jpg,Monkey Pox
874,M34_02_06.jpg,Monkey Pox
875,M34_02_07.jpg,Monkey Pox
876,M34_02_08.jpg,Monkey Pox
877,M34_02_09.jpg,Monkey Pox
878,M34_02_10.jpg,Monkey Pox
879,M34_02_11.jpg,Monkey Pox
880,M34_02_12.jpg,Monkey Pox
881,M34_02_13.jpg,Monkey Pox
882,M34_03_00.jpg,Monkey Pox
883,M34_03_01.jpg,Monkey Pox
884,M34_03_02.jpg,Monkey Pox
885,M34_03_03.jpg,Monkey Pox
886,M34_03_04.jpg,Monkey Pox
887,M34_03_05.jpg,Monkey Pox
888,M34_03_06.jpg,Monkey Pox
889,M34_03_07.jpg,Monkey Pox
890,M34_03_08.jpg,Monkey Pox
891,M34_03_09.jpg,Monkey Pox
892,M34_03_10.jpg,Monkey Pox
893,M34_03_11.jpg,Monkey Pox
894,M34_03_12.jpg,Monkey Pox
895,M34_03_13.jpg,Monkey Pox
896,M34_04_00.jpg,Monkey Pox
897,M34_04_01.jpg,Monkey Pox
898,M34_04_02.jpg,Monkey Pox
899,M34_04_03.jpg,Monkey Pox
900,M34_04_04.jpg,Monkey Pox
901,M34_04_05.jpg,Monkey Pox
902,M34_04_06.jpg,Monkey Pox
903,M34_04_07.jpg,Monkey Pox
904,M34_04_08.jpg,Monkey Pox
905,M34_04_09.jpg,Monkey Pox
906,M34_04_10.jpg,Monkey Pox
907,M34_04_11.jpg,Monkey Pox
908,M34_04_12.jpg,Monkey Pox
909,M34_04_13.jpg,Monkey Pox
910,M35_01_00.jpg,Monkey Pox
911,M35_01_01.jpg,Monkey Pox
912,M35_01_02.jpg,Monkey Pox
913,M35_01_03.jpg,Monkey Pox
914,M35_01_04.jpg,Monkey Pox
915,M35_01_05.jpg,Monkey Pox
916,M35_01_06.jpg,Monkey Pox
917,M35_01_07.jpg,Monkey Pox
918,M35_01_08.jpg,Monkey Pox
919,M35_01_09.jpg,Monkey Pox
920,M35_01_10.jpg,Monkey Pox
921,M35_01_11.jpg,Monkey Pox
922,M35_01_12.jpg,Monkey Pox
923,M35_01_13.jpg,Monkey Pox
924,M35_02_00.jpg,Monkey Pox
925,M35_02_01.jpg,Monkey Pox
926,M35_02_02.jpg,Monkey Pox
927,M35_02_03.jpg,Monkey Pox
928,M35_02_04.jpg,Monkey Pox
929,M35_02_05.jpg,Monkey Pox
930,M35_02_06.jpg,Monkey Pox
931,M35_02_07.jpg,Monkey Pox
932,M35_02_08.jpg,Monkey Pox
933,M35_02_09.jpg,Monkey Pox
934,M35_02_10.jpg,Monkey Pox
935,M35_02_11.jpg,Monkey Pox
936,M35_02_12.jpg,Monkey Pox
937,M35_02_13.jpg,Monkey Pox
938,M36_01_00.jpg,Monkey Pox
939,M36_01_01.jpg,Monkey Pox
940,M36_01_02.jpg,Monkey Pox
941,M36_01_03.jpg,Monkey Pox
942,M36_01_04.jpg,Monkey Pox
943,M36_01_05.jpg,Monkey Pox
944,M36_01_06.jpg,Monkey Pox
945,M36_01_07.jpg,Monkey Pox
946,M36_01_08.jpg,Monkey Pox
947,M36_01_09.jpg,Monkey Pox
948,M36_01_10.jpg,Monkey Pox
949,M36_01_11.jpg,Monkey Pox
950,M36_01_12.jpg,Monkey Pox
951,M36_01_13.jpg,Monkey Pox
952,M37_01_00.jpg,Monkey Pox
953,M37_01_01.jpg,Monkey Pox
954,M37_01_02.jpg,Monkey Pox
955,M37_01_03.jpg,Monkey Pox
956,M37_01_04.jpg,Monkey Pox
957,M37_01_05.jpg,Monkey Pox
958,M37_01_06.jpg,Monkey Pox
959,M37_01_07.jpg,Monkey Pox
960,M37_01_08.jpg,Monkey Pox
961,M37_01_09.jpg,Monkey Pox
962,M37_01_10.jpg,Monkey Pox
963,M37_01_11.jpg,Monkey Pox
964,M37_01_12.jpg,Monkey Pox
965,M37_01_13.jpg,Monkey Pox
966,M38_01_00.jpg,Monkey Pox
967,M38_01_01.jpg,Monkey Pox
968,M38_01_02.jpg,Monkey Pox
969,M38_01_03.jpg,Monkey Pox
970,M38_01_04.jpg,Monkey Pox
971,M38_01_05.jpg,Monkey Pox
972,M38_01_06.jpg,Monkey Pox
973,M38_01_07.jpg,Monkey Pox
974,M38_01_08.jpg,Monkey Pox
975,M38_01_09.jpg,Monkey Pox
976,M38_01_10.jpg,Monkey Pox
977,M38_01_11.jpg,Monkey Pox
978,M38_01_12.jpg,Monkey Pox
979,M38_01_13.jpg,Monkey Pox
980,M38_02_00.jpg,Monkey Pox
981,M38_02_01.jpg,Monkey Pox
982,M38_02_02.jpg,Monkey Pox
983,M38_02_03.jpg,Monkey Pox
984,M38_02_04.jpg,Monkey Pox
985,M38_02_05.jpg,Monkey Pox
986,M38_02_06.jpg,Monkey Pox
987,M38_02_07.jpg,Monkey Pox
988,M38_02_08.jpg,Monkey Pox
989,M38_02_09.jpg,Monkey Pox
990,M38_02_10.jpg,Monkey Pox
991,M38_02_11.jpg,Monkey Pox
992,M38_02_12.jpg,Monkey Pox
993,M38_02_13.jpg,Monkey Pox
994,M39_01_00.jpg,Monkey Pox
995,M39_01_01.jpg,Monkey Pox
996,M39_01_02.jpg,Monkey Pox
997,M39_01_03.jpg,Monkey Pox
998,M39_01_04.jpg,Monkey Pox
999,M39_01_05.jpg,Monkey Pox
1000,M39_01_06.jpg,Monkey Pox
1001,M39_01_07.jpg,Monkey Pox
1002,M39_01_08.jpg,Monkey Pox
1003,M39_01_09.jpg,Monkey Pox
1004,M39_01_10.jpg,Monkey Pox
1005,M39_01_11.jpg,Monkey Pox
1006,M39_01_12.jpg,Monkey Pox
1007,M39_01_13.jpg,Monkey Pox
1008,M39_02_00.jpg,Monkey Pox
1009,M39_02_01.jpg,Monkey Pox
1010,M39_02_02.jpg,Monkey Pox
1011,M39_02_03.jpg,Monkey Pox
1012,M39_02_04.jpg,Monkey Pox
1013,M39_02_05.jpg,Monkey Pox
1014,M39_02_06.jpg,Monkey Pox
1015,M39_02_07.jpg,Monkey Pox
1016,M39_02_08.jpg,Monkey Pox
1017,M39_02_09.jpg,Monkey Pox
1018,M39_02_10.jpg,Monkey Pox
1019,M39_02_11.jpg,Monkey Pox
1020,M39_02_12.jpg,Monkey Pox
1021,M39_02_13.jpg,Monkey Pox
1022,M40_01_00.jpg,Monkey Pox
1023,M40_01_01.jpg,Monkey Pox
1024,M40_01_02.jpg,Monkey Pox
1025,M40_01_03.jpg,Monkey Pox
1026,M40_01_04.jpg,Monkey Pox
1027,M40_01_05.jpg,Monkey Pox
1028,M40_01_06.jpg,Monkey Pox
1029,M40_01_07.jpg,Monkey Pox
1030,M40_01_08.jpg,Monkey Pox
1031,M40_01_09.jpg,Monkey Pox
1032,M40_01_10.jpg,Monkey Pox
1033,M40_01_11.jpg,Monkey Pox
1034,M40_01_12.jpg,Monkey Pox
1035,M40_01_13.jpg,Monkey Pox
1036,M40_02_00.jpg,Monkey Pox
1037,M40_02_01.jpg,Monkey Pox
1038,M40_02_02.jpg,Monkey Pox
1039,M40_02_03.jpg,Monkey Pox
1040,M40_02_04.jpg,Monkey Pox
1041,M40_02_05.jpg,Monkey Pox
1042,M40_02_06.jpg,Monkey Pox
1043,M40_02_07.jpg,Monkey Pox
1044,M40_02_08.jpg,Monkey Pox
1045,M40_02_09.jpg,Monkey Pox
1046,M40_02_10.jpg,Monkey Pox
1047,M40_02_11.jpg,Monkey Pox
1048,M40_02_12.jpg,Monkey Pox
1049,M40_02_13.jpg,Monkey Pox
1050,M40_03_00.jpg,Monkey Pox
1051,M40_03_01.jpg,Monkey Pox
1052,M40_03_02.jpg,Monkey Pox
1053,M40_03_03.jpg,Monkey Pox
1054,M40_03_04.jpg,Monkey Pox
1055,M40_03_05.jpg,Monkey Pox
1056,M40_03_06.jpg,Monkey Pox
1057,M40_03_07.jpg,Monkey Pox
1058,M40_03_08.jpg,Monkey Pox
1059,M40_03_09.jpg,Monkey Pox
1060,M40_03_10.jpg,Monkey Pox
1061,M40_03_11.jpg,Monkey Pox
1062,M40_03_12.jpg,Monkey Pox
1063,M40_03_13.jpg,Monkey Pox
1064,M41_01_00.jpg,Monkey Pox
1065,M41_01_01.jpg,Monkey Pox
1066,M41_01_02.jpg,Monkey Pox
1067,M41_01_03.jpg,Monkey Pox
1068,M41_01_04.jpg,Monkey Pox
1069,M41_01_05.jpg,Monkey Pox
1070,M41_01_06.jpg,Monkey Pox
1071,M41_01_07.jpg,Monkey Pox
1072,M41_01_08.jpg,Monkey Pox
1073,M41_01_09.jpg,Monkey Pox
1074,M41_01_10.jpg,Monkey Pox
1075,M41_01_11.jpg,Monkey Pox
1076,M41_01_12.jpg,Monkey Pox
1077,M41_01_13.jpg,Monkey Pox
1078,M42_01_00.jpg,Monkey Pox
1079,M42_01_01.jpg,Monkey Pox
1080,M42_01_02.jpg,Monkey Pox
1081,M42_01_03.jpg,Monkey Pox
1082,M42_01_04.jpg,Monkey Pox
1083,M42_01_05.jpg,Monkey Pox
1084,M42_01_06.jpg,Monkey Pox
1085,M42_01_07.jpg,Monkey Pox
1086,M42_01_08.jpg,Monkey Pox
1087,M42_01_09.jpg,Monkey Pox
1088,M42_01_10.jpg,Monkey Pox
1089,M42_01_11.jpg,Monkey Pox
1090,M42_01_12.jpg,Monkey Pox
1091,M42_01_13.jpg,Monkey Pox
1092,M42_02_00.jpg,Monkey Pox
1093,M42_02_01.jpg,Monkey Pox
1094,M42_02_02.jpg,Monkey Pox
1095,M42_02_03.jpg,Monkey Pox
1096,M42_02_04.jpg,Monkey Pox
1097,M42_02_05.jpg,Monkey Pox
1098,M42_02_06.jpg,Monkey Pox
1099,M42_02_07.jpg,Monkey Pox
1100,M42_02_08.jpg,Monkey Pox
1101,M42_02_09.jpg,Monkey Pox
1102,M42_02_10.jpg,Monkey Pox
1103,M42_02_11.jpg,Monkey Pox
1104,M42_02_12.jpg,Monkey Pox
1105,M42_02_13.jpg,Monkey Pox
1106,M43_01_00.jpg,Monkey Pox
1107,M43_01_01.jpg,Monkey Pox
1108,M43_01_02.jpg,Monkey Pox
1109,M43_01_03.jpg,Monkey Pox
1110,M43_01_04.jpg,Monkey Pox
1111,M43_01_05.jpg,Monkey Pox
1112,M43_01_06.jpg,Monkey Pox
1113,M43_01_07.jpg,Monkey Pox
1114,M43_01_08.jpg,Monkey Pox
1115,M43_01_09.jpg,Monkey Pox
1116,M43_01_10.jpg,Monkey Pox
1117,M43_01_11.jpg,Monkey Pox
1118,M43_01_12.jpg,Monkey Pox
1119,M43_01_13.jpg,Monkey Pox
1120,M43_02_00.jpg,Monkey Pox
1121,M43_02_01.jpg,Monkey Pox
1122,M43_02_02.jpg,Monkey Pox
1123,M43_02_03.jpg,Monkey Pox
1124,M43_02_04.jpg,Monkey Pox
1125,M43_02_05.jpg,Monkey Pox
1126,M43_02_06.jpg,Monkey Pox
1127,M43_02_07.jpg,Monkey Pox
1128,M43_02_08.jpg,Monkey Pox
1129,M43_02_09.jpg,Monkey Pox
1130,M43_02_10.jpg,Monkey Pox
1131,M43_02_11.jpg,Monkey Pox
1132,M43_02_12.jpg,Monkey Pox
1133,M43_02_13.jpg,Monkey Pox
1134,M43_03_00.jpg,Monkey Pox
1135,M43_03_01.jpg,Monkey Pox
1136,M43_03_02.jpg,Monkey Pox
1137,M43_03_03.jpg,Monkey Pox
1138,M43_03_04.jpg,Monkey Pox
1139,M43_03_05.jpg,Monkey Pox
1140,M43_03_06.jpg,Monkey Pox
1141,M43_03_07.jpg,Monkey Pox
1142,M43_03_08.jpg,Monkey Pox
1143,M43_03_09.jpg,Monkey Pox
1144,M43_03_10.jpg,Monkey Pox
1145,M43_03_11.jpg,Monkey Pox
1146,M43_03_12.jpg,Monkey Pox
1147,M43_03_13.jpg,Monkey Pox
1148,M44_01_00.jpg,Monkey Pox
1149,M44_01_01.jpg,Monkey Pox
1150,M44_01_02.jpg,Monkey Pox
1151,M44_01_03.jpg,Monkey Pox
1152,M44_01_04.jpg,Monkey Pox
1153,M44_01_05.jpg,Monkey Pox
1154,M44_01_06.jpg,Monkey Pox
1155,M44_01_07.jpg,Monkey Pox
1156,M44_01_08.jpg,Monkey Pox
1157,M44_01_09.jpg,Monkey Pox
1158,M44_01_10.jpg,Monkey Pox
1159,M44_01_11.jpg,Monkey Pox
1160,M44_01_12.jpg,Monkey Pox
1161,M44_01_13.jpg,Monkey Pox
1162,M45_01_00.jpg,Monkey Pox
1163,M45_01_01.jpg,Monkey Pox
1164,M45_01_02.jpg,Monkey Pox
1165,M45_01_03.jpg,Monkey Pox
1166,M45_01_04.jpg,Monkey Pox
1167,M45_01_05.jpg,Monkey Pox
1168,M45_01_06.jpg,Monkey Pox
1169,M45_01_07.jpg,Monkey Pox
1170,M45_01_08.jpg,Monkey Pox
1171,M45_01_09.jpg,Monkey Pox
1172,M45_01_10.jpg,Monkey Pox
1173,M45_01_11.jpg,Monkey Pox
1174,M45_01_12.jpg,Monkey Pox
1175,M45_01_13.jpg,Monkey Pox
1176,M46_01_00.jpg,Monkey Pox
1177,M46_01_01.jpg,Monkey Pox
1178,M46_01_02.jpg,Monkey Pox
1179,M46_01_03.jpg,Monkey Pox
1180,M46_01_04.jpg,Monkey Pox
1181,M46_01_05.jpg,Monkey Pox
1182,M46_01_06.jpg,Monkey Pox
1183,M46_01_07.jpg,Monkey Pox
1184,M46_01_08.jpg,Monkey Pox
1185,M46_01_09.jpg,Monkey Pox
1186,M46_01_10.jpg,Monkey Pox
1187,M46_01_11.jpg,Monkey Pox
1188,M46_01_12.jpg,Monkey Pox
1189,M46_01_13.jpg,Monkey Pox
1190,M46_02_00.jpg,Monkey Pox
1191,M46_02_01.jpg,Monkey Pox
1192,M46_02_02.jpg,Monkey Pox
1193,M46_02_03.jpg,Monkey Pox
1194,M46_02_04.jpg,Monkey Pox
1195,M46_02_05.jpg,Monkey Pox
1196,M46_02_06.jpg,Monkey Pox
1197,M46_02_07.jpg,Monkey Pox
1198,M46_02_08.jpg,Monkey Pox
1199,M46_02_09.jpg,Monkey Pox
1200,M46_02_10.jpg,Monkey Pox
1201,M46_02_11.jpg,Monkey Pox
1202,M46_02_12.jpg,Monkey Pox
1203,M46_02_13.jpg,Monkey Pox
1204,M47_01_00.jpg,Monkey Pox
1205,M47_01_01.jpg,Monkey Pox
1206,M47_01_02.jpg,Monkey Pox
1207,M47_01_03.jpg,Monkey Pox
1208,M47_01_04.jpg,Monkey Pox
1209,M47_01_05.jpg,Monkey Pox
1210,M47_01_06.jpg,Monkey Pox
1211,M47_01_07.jpg,Monkey Pox
1212,M47_01_08.jpg,Monkey Pox
1213,M47_01_09.jpg,Monkey Pox
1214,M47_01_10.jpg,Monkey Pox
1215,M47_01_11.jpg,Monkey Pox
1216,M47_01_12.jpg,Monkey Pox
1217,M47_01_13.jpg,Monkey Pox
1218,M48_01_00.jpg,Monkey Pox
1219,M48_01_01.jpg,Monkey Pox
1220,M48_01_02.jpg,Monkey Pox
1221,M48_01_03.jpg,Monkey Pox
1222,M48_01_04.jpg,Monkey Pox
1223,M48_01_05.jpg,Monkey Pox
1224,M48_01_06.jpg,Monkey Pox
1225,M48_01_07.jpg,Monkey Pox
1226,M48_01_08.jpg,Monkey Pox
1227,M48_01_09.jpg,Monkey Pox
1228,M48_01_10.jpg,Monkey Pox
1229,M48_01_11.jpg,Monkey Pox
1230,M48_01_12.jpg,Monkey Pox
1231,M48_01_13.jpg,Monkey Pox
1232,M48_02_00.jpg,Monkey Pox
1233,M48_02_01.jpg,Monkey Pox
1234,M48_02_02.jpg,Monkey Pox
1235,M48_02_03.jpg,Monkey Pox
1236,M48_02_04.jpg,Monkey Pox
1237,M48_02_05.jpg,Monkey Pox
1238,M48_02_06.jpg,Monkey Pox
1239,M48_02_07.jpg,Monkey Pox
1240,M48_02_08.jpg,Monkey Pox
1241,M48_02_09.jpg,Monkey Pox
1242,M48_02_10.jpg,Monkey Pox
1243,M48_02_11.jpg,Monkey Pox
1244,M48_02_12.jpg,Monkey Pox
1245,M48_02_13.jpg,Monkey Pox
1246,M48_03_00.jpg,Monkey Pox
1247,M48_03_01.jpg,Monkey Pox
1248,M48_03_02.jpg,Monkey Pox
1249,M48_03_03.jpg,Monkey Pox
1250,M48_03_04.jpg,Monkey Pox
1251,M48_03_05.jpg,Monkey Pox
1252,M48_03_06.jpg,Monkey Pox
1253,M48_03_07.jpg,Monkey Pox
1254,M48_03_08.jpg,Monkey Pox
1255,M48_03_09.jpg,Monkey Pox
1256,M48_03_10.jpg,Monkey Pox
1257,M48_03_11.jpg,Monkey Pox
1258,M48_03_12.jpg,Monkey Pox
1259,M48_03_13.jpg,Monkey Pox
1260,M49_01_00.jpg,Monkey Pox
1261,M49_01_01.jpg,Monkey Pox
1262,M49_01_02.jpg,Monkey Pox
1263,M49_01_03.jpg,Monkey Pox
1264,M49_01_04.jpg,Monkey Pox
1265,M49_01_05.jpg,Monkey Pox
1266,M49_01_06.jpg,Monkey Pox
1267,M49_01_07.jpg,Monkey Pox
1268,M49_01_08.jpg,Monkey Pox
1269,M49_01_09.jpg,Monkey Pox
1270,M49_01_10.jpg,Monkey Pox
1271,M49_01_11.jpg,Monkey Pox
1272,M49_01_12.jpg,Monkey Pox
1273,M49_01_13.jpg,Monkey Pox
1274,M49_02_00.jpg,Monkey Pox
1275,M49_02_01.jpg,Monkey Pox
1276,M49_02_02.jpg,Monkey Pox
1277,M49_02_03.jpg,Monkey Pox
1278,M49_02_04.jpg,Monkey Pox
1279,M49_02_05.jpg,Monkey Pox
1280,M49_02_06.jpg,Monkey Pox
1281,M49_02_07.jpg,Monkey Pox
1282,M49_02_08.jpg,Monkey Pox
1283,M49_02_09.jpg,Monkey Pox
1284,M49_02_10.jpg,Monkey Pox
1285,M49_02_11.jpg,Monkey Pox
1286,M49_02_12.jpg,Monkey Pox
1287,M49_02_13.jpg,Monkey Pox
1288,M49_03_00.jpg,Monkey Pox
1289,M49_03_01.jpg,Monkey Pox
1290,M49_03_02.jpg,Monkey Pox
1291,M49_03_03.jpg,Monkey Pox
1292,M49_03_04.jpg,Monkey Pox
1293,M49_03_05.jpg,Monkey Pox
1294,M49_03_06.jpg,Monkey Pox
1295,M49_03_07.jpg,Monkey Pox
1296,M49_03_08.jpg,Monkey Pox
1297,M49_03_09.jpg,Monkey Pox
1298,M49_03_10.jpg,Monkey Pox
1299,M49_03_11.jpg,Monkey Pox
1300,M49_03_12.jpg,Monkey Pox
1301,M49_03_13.jpg,Monkey Pox
1302,M50_01_00.jpg,Monkey Pox
1303,M50_01_01.jpg,Monkey Pox
1304,M50_01_02.jpg,Monkey Pox
1305,M50_01_03.jpg,Monkey Pox
1306,M50_01_04.jpg,Monkey Pox
1307,M50_01_05.jpg,Monkey Pox
1308,M50_01_06.jpg,Monkey Pox
1309,M50_01_07.jpg,Monkey Pox
1310,M50_01_08.jpg,Monkey Pox
1311,M50_01_09.jpg,Monkey Pox
1312,M50_01_10.jpg,Monkey Pox
1313,M50_01_11.jpg,Monkey Pox
1314,M50_01_12.jpg,Monkey Pox
1315,M50_01_13.jpg,Monkey Pox
1316,M50_02_00.jpg,Monkey Pox
1317,M50_02_01.jpg,Monkey Pox
1318,M50_02_02.jpg,Monkey Pox
1319,M50_02_03.jpg,Monkey Pox
1320,M50_02_04.jpg,Monkey Pox
1321,M50_02_05.jpg,Monkey Pox
1322,M50_02_06.jpg,Monkey Pox
1323,M50_02_07.jpg,Monkey Pox
1324,M50_02_08.jpg,Monkey Pox
1325,M50_02_09.jpg,Monkey Pox
1326,M50_02_10.jpg,Monkey Pox
1327,M50_02_11.jpg,Monkey Pox
1328,M50_02_12.jpg,Monkey Pox
1329,M50_02_13.jpg,Monkey Pox
1330,M50_03_00.jpg,Monkey Pox
1331,M50_03_01.jpg,Monkey Pox
1332,M50_03_02.jpg,Monkey Pox
1333,M50_03_03.jpg,Monkey Pox
1334,M50_03_04.jpg,Monkey Pox
1335,M50_03_05.jpg,Monkey Pox
1336,M50_03_06.jpg,Monkey Pox
1337,M50_03_07.jpg,Monkey Pox
1338,M50_03_08.jpg,Monkey Pox
1339,M50_03_09.jpg,Monkey Pox
1340,M50_03_10.jpg,Monkey Pox
1341,M50_03_11.jpg,Monkey Pox
1342,M50_03_12.jpg,Monkey Pox
1343,M50_03_13.jpg,Monkey Pox
1344,M51_01_00.jpg,Monkey Pox
1345,M51_01_01.jpg,Monkey Pox
1346,M51_01_02.jpg,Monkey Pox
1347,M51_01_03.jpg,Monkey Pox
1348,M51_01_04.jpg,Monkey Pox
1349,M51_01_05.jpg,Monkey Pox
1350,M51_01_06.jpg,Monkey Pox
1351,M51_01_07.jpg,Monkey Pox
1352,M51_01_08.jpg,Monkey Pox
1353,M51_01_09.jpg,Monkey Pox
1354,M51_01_10.jpg,Monkey Pox
1355,M51_01_11.jpg,Monkey Pox
1356,M51_01_12.jpg,Monkey Pox
1357,M51_01_13.jpg,Monkey Pox
1358,M51_02_00.jpg,Monkey Pox
1359,M51_02_01.jpg,Monkey Pox
1360,M51_02_02.jpg,Monkey Pox
1361,M51_02_03.jpg,Monkey Pox
1362,M51_02_04.jpg,Monkey Pox
1363,M51_02_05.jpg,Monkey Pox
1364,M51_02_06.jpg,Monkey Pox
1365,M51_02_07.jpg,Monkey Pox
1366,M51_02_08.jpg,Monkey Pox
1367,M51_02_09.jpg,Monkey Pox
1368,M51_02_10.jpg,Monkey Pox
1369,M51_02_11.jpg,Monkey Pox
1370,M51_02_12.jpg,Monkey Pox
1371,M51_02_13.jpg,Monkey Pox
1372,M52_01_00.jpg,Monkey Pox
1373,M52_01_01.jpg,Monkey Pox
1374,M52_01_02.jpg,Monkey Pox
1375,M52_01_03.jpg,Monkey Pox
1376,M52_01_04.jpg,Monkey Pox
1377,M52_01_05.jpg,Monkey Pox
1378,M52_01_06.jpg,Monkey Pox
1379,M52_01_07.jpg,Monkey Pox
1380,M52_01_08.jpg,Monkey Pox
1381,M52_01_09.jpg,Monkey Pox
1382,M52_01_10.jpg,Monkey Pox
1383,M52_01_11.jpg,Monkey Pox
1384,M52_01_12.jpg,Monkey Pox
1385,M52_01_13.jpg,Monkey Pox
1386,M53_01_00.jpg,Monkey Pox
1387,M53_01_01.jpg,Monkey Pox
1388,M53_01_02.jpg,Monkey Pox
1389,M53_01_03.jpg,Monkey Pox
1390,M53_01_04.jpg,Monkey Pox
1391,M53_01_05.jpg,Monkey Pox
1392,M53_01_06.jpg,Monkey Pox
1393,M53_01_07.jpg,Monkey Pox
1394,M53_01_08.jpg,Monkey Pox
1395,M53_01_09.jpg,Monkey Pox
1396,M53_01_10.jpg,Monkey Pox
1397,M53_01_11.jpg,Monkey Pox
1398,M53_01_12.jpg,Monkey Pox
1399,M53_01_13.jpg,Monkey Pox
1400,M54_01_00.jpg,Monkey Pox
1401,M54_01_01.jpg,Monkey Pox
1402,M54_01_02.jpg,Monkey Pox
1403,M54_01_03.jpg,Monkey Pox
1404,M54_01_04.jpg,Monkey Pox
1405,M54_01_05.jpg,Monkey Pox
1406,M54_01_06.jpg,Monkey Pox
1407,M54_01_07.jpg,Monkey Pox
1408,M54_01_08.jpg,Monkey Pox
1409,M54_01_09.jpg,Monkey Pox
1410,M54_01_10.jpg,Monkey Pox
1411,M54_01_11.jpg,Monkey Pox
1412,M54_01_12.jpg,Monkey Pox
1413,M54_01_13.jpg,Monkey Pox
1414,M55_01_00.jpg,Monkey Pox
1415,M55_01_01.jpg,Monkey Pox
1416,M55_01_02.jpg,Monkey Pox
1417,M55_01_03.jpg,Monkey Pox
1418,M55_01_04.jpg,Monkey Pox
1419,M55_01_05.jpg,Monkey Pox
1420,M55_01_06.jpg,Monkey Pox
1421,M55_01_07.jpg,Monkey Pox
1422,M55_01_08.jpg,Monkey Pox
1423,M55_01_09.jpg,Monkey Pox
1424,M55_01_10.jpg,Monkey Pox
1425,M55_01_11.jpg,Monkey Pox
1426,M55_01_12.jpg,Monkey Pox
1427,M55_01_13.jpg,Monkey Pox
1428,NM01_01_00.jpg,Others
1429,NM01_01_01.jpg,Others
1430,NM01_01_02.jpg,Others
1431,NM01_01_03.jpg,Others
1432,NM01_01_04.jpg,Others
1433,NM01_01_05.jpg,Others
1434,NM01_01_06.jpg,Others
1435,NM01_01_07.jpg,Others
1436,NM01_01_08.jpg,Others
1437,NM01_01_09.jpg,Others
1438,NM01_01_10.jpg,Others
1439,NM01_01_11.jpg,Others
1440,NM01_01_12.jpg,Others
1441,NM01_01_13.jpg,Others
1442,NM02_01_00.jpg,Others
1443,NM02_01_01.jpg,Others
1444,NM02_01_02.jpg,Others
1445,NM02_01_03.jpg,Others
1446,NM02_01_04.jpg,Others
1447,NM02_01_05.jpg,Others
1448,NM02_01_06.jpg,Others
1449,NM02_01_07.jpg,Others
1450,NM02_01_08.jpg,Others
1451,NM02_01_09.jpg,Others
1452,NM02_01_10.jpg,Others
1453,NM02_01_11.jpg,Others
1454,NM02_01_12.jpg,Others
1455,NM02_01_13.jpg,Others
1456,NM03_01_00.jpg,Others
1457,NM03_01_01.jpg,Others
1458,NM03_01_02.jpg,Others
1459,NM03_01_03.jpg,Others
1460,NM03_01_04.jpg,Others
1461,NM03_01_05.jpg,Others
1462,NM03_01_06.jpg,Others
1463,NM03_01_07.jpg,Others
1464,NM03_01_08.jpg,Others
1465,NM03_01_09.jpg,Others
1466,NM03_01_10.jpg,Others
1467,NM03_01_11.jpg,Others
1468,NM03_01_12.jpg,Others
1469,NM03_01_13.jpg,Others
1470,NM04_01_00.jpg,Others
1471,NM04_01_01.jpg,Others
1472,NM04_01_02.jpg,Others
1473,NM04_01_03.jpg,Others
1474,NM04_01_04.jpg,Others
1475,NM04_01_05.jpg,Others
1476,NM04_01_06.jpg,Others
1477,NM04_01_07.jpg,Others
1478,NM04_01_08.jpg,Others
1479,NM04_01_09.jpg,Others
1480,NM04_01_10.jpg,Others
1481,NM04_01_11.jpg,Others
1482,NM04_01_12.jpg,Others
1483,NM04_01_13.jpg,Others
1484,NM05_01_00.jpg,Others
1485,NM05_01_01.jpg,Others
1486,NM05_01_02.jpg,Others
1487,NM05_01_03.jpg,Others
1488,NM05_01_04.jpg,Others
1489,NM05_01_05.jpg,Others
1490,NM05_01_06.jpg,Others
1491,NM05_01_07.jpg,Others
1492,NM05_01_08.jpg,Others
1493,NM05_01_09.jpg,Others
1494,NM05_01_10.jpg,Others
1495,NM05_01_11.jpg,Others
1496,NM05_01_12.jpg,Others
1497,NM05_01_13.jpg,Others
1498,NM06_01_00.jpg,Others
1499,NM06_01_01.jpg,Others
1500,NM06_01_02.jpg,Others
1501,NM06_01_03.jpg,Others
1502,NM06_01_04.jpg,Others
1503,NM06_01_05.jpg,Others
1504,NM06_01_06.jpg,Others
1505,NM06_01_07.jpg,Others
1506,NM06_01_08.jpg,Others
1507,NM06_01_09.jpg,Others
1508,NM06_01_10.jpg,Others
1509,NM06_01_11.jpg,Others
1510,NM06_01_12.jpg,Others
1511,NM06_01_13.jpg,Others
1512,NM07_01_00.jpg,Others
1513,NM07_01_01.jpg,Others
1514,NM07_01_02.jpg,Others
1515,NM07_01_03.jpg,Others
1516,NM07_01_04.jpg,Others
1517,NM07_01_05.jpg,Others
1518,NM07_01_06.jpg,Others
1519,NM07_01_07.jpg,Others
1520,NM07_01_08.jpg,Others
1521,NM07_01_09.jpg,Others
1522,NM07_01_10.jpg,Others
1523,NM07_01_11.jpg,Others
1524,NM07_01_12.jpg,Others
1525,NM07_01_13.jpg,Others
1526,NM08_01_00.jpg,Others
1527,NM08_01_01.jpg,Others
1528,NM08_01_02.jpg,Others
1529,NM08_01_03.jpg,Others
1530,NM08_01_04.jpg,Others
1531,NM08_01_05.jpg,Others
1532,NM08_01_06.jpg,Others
1533,NM08_01_07.jpg,Others
1534,NM08_01_08.jpg,Others
1535,NM08_01_09.jpg,Others
1536,NM08_01_10.jpg,Others
1537,NM08_01_11.jpg,Others
1538,NM08_01_12.jpg,Others
1539,NM08_01_13.jpg,Others
1540,NM09_01_00.jpg,Others
1541,NM09_01_01.jpg,Others
1542,NM09_01_02.jpg,Others
1543,NM09_01_03.jpg,Others
1544,NM09_01_04.jpg,Others
1545,NM09_01_05.jpg,Others
1546,NM09_01_06.jpg,Others
1547,NM09_01_07.jpg,Others
1548,NM09_01_08.jpg,Others
1549,NM09_01_09.jpg,Others
1550,NM09_01_10.jpg,Others
1551,NM09_01_11.jpg,Others
1552,NM09_01_12.jpg,Others
1553,NM09_01_13.jpg,Others
1554,NM100_01_00.jpg,Others
1555,NM100_01_01.jpg,Others
1556,NM100_01_02.jpg,Others
1557,NM100_01_03.jpg,Others
1558,NM100_01_04.jpg,Others
1559,NM100_01_05.jpg,Others
1560,NM100_01_06.jpg,Others
1561,NM100_01_07.jpg,Others
1562,NM100_01_08.jpg,Others
1563,NM100_01_09.jpg,Others
1564,NM100_01_10.jpg,Others
1565,NM100_01_11.jpg,Others
1566,NM100_01_12.jpg,Others
1567,NM100_01_13.jpg,Others
1568,NM101_01_00.jpg,Others
1569,NM101_01_01.jpg,Others
1570,NM101_01_02.jpg,Others
1571,NM101_01_03.jpg,Others
1572,NM101_01_04.jpg,Others
1573,NM101_01_05.jpg,Others
1574,NM101_01_06.jpg,Others
1575,NM101_01_07.jpg,Others
1576,NM101_01_08.jpg,Others
1577,NM101_01_09.jpg,Others
1578,NM101_01_10.jpg,Others
1579,NM101_01_11.jpg,Others
1580,NM101_01_12.jpg,Others
1581,NM101_01_13.jpg,Others
1582,NM101_02_00.jpg,Others
1583,NM101_02_01.jpg,Others
1584,NM101_02_02.jpg,Others
1585,NM101_02_03.jpg,Others
1586,NM101_02_04.jpg,Others
1587,NM101_02_05.jpg,Others
1588,NM101_02_06.jpg,Others
1589,NM101_02_07.jpg,Others
1590,NM101_02_08.jpg,Others
1591,NM101_02_09.jpg,Others
1592,NM101_02_10.jpg,Others
1593,NM101_02_11.jpg,Others
1594,NM101_02_12.jpg,Others
1595,NM101_02_13.jpg,Others
1596,NM102_01_00.jpg,Others
1597,NM102_01_01.jpg,Others
1598,NM102_01_02.jpg,Others
1599,NM102_01_03.jpg,Others
1600,NM102_01_04.jpg,Others
1601,NM102_01_05.jpg,Others
1602,NM102_01_06.jpg,Others
1603,NM102_01_07.jpg,Others
1604,NM102_01_08.jpg,Others
1605,NM102_01_09.jpg,Others
1606,NM102_01_10.jpg,Others
1607,NM102_01_11.jpg,Others
1608,NM102_01_12.jpg,Others
1609,NM102_01_13.jpg,Others
1610,NM103_01_00.jpg,Others
1611,NM103_01_01.jpg,Others
1612,NM103_01_02.jpg,Others
1613,NM103_01_03.jpg,Others
1614,NM103_01_04.jpg,Others
1615,NM103_01_05.jpg,Others
1616,NM103_01_06.jpg,Others
1617,NM103_01_07.jpg,Others
1618,NM103_01_08.jpg,Others
1619,NM103_01_09.jpg,Others
1620,NM103_01_10.jpg,Others
1621,NM103_01_11.jpg,Others
1622,NM103_01_12.jpg,Others
1623,NM103_01_13.jpg,Others
1624,NM103_02_00.jpg,Others
1625,NM103_02_01.jpg,Others
1626,NM103_02_02.jpg,Others
1627,NM103_02_03.jpg,Others
1628,NM103_02_04.jpg,Others
1629,NM103_02_05.jpg,Others
1630,NM103_02_06.jpg,Others
1631,NM103_02_07.jpg,Others
1632,NM103_02_08.jpg,Others
1633,NM103_02_09.jpg,Others
1634,NM103_02_10.jpg,Others
1635,NM103_02_11.jpg,Others
1636,NM103_02_12.jpg,Others
1637,NM103_02_13.jpg,Others
1638,NM104_01_00.jpg,Others
1639,NM104_01_01.jpg,Others
1640,NM104_01_02.jpg,Others
1641,NM104_01_03.jpg,Others
1642,NM104_01_04.jpg,Others
1643,NM104_01_05.jpg,Others
1644,NM104_01_06.jpg,Others
1645,NM104_01_07.jpg,Others
1646,NM104_01_08.jpg,Others
1647,NM104_01_09.jpg,Others
1648,NM104_01_10.jpg,Others
1649,NM104_01_11.jpg,Others
1650,NM104_01_12.jpg,Others
1651,NM104_01_13.jpg,Others
1652,NM105_01_00.jpg,Others
1653,NM105_01_01.jpg,Others
1654,NM105_01_02.jpg,Others
1655,NM105_01_03.jpg,Others
1656,NM105_01_04.jpg,Others
1657,NM105_01_05.jpg,Others
1658,NM105_01_06.jpg,Others
1659,NM105_01_07.jpg,Others
1660,NM105_01_08.jpg,Others
1661,NM105_01_09.jpg,Others
1662,NM105_01_10.jpg,Others
1663,NM105_01_11.jpg,Others
1664,NM105_01_12.jpg,Others
1665,NM105_01_13.jpg,Others
1666,NM106_01_00.jpg,Others
1667,NM106_01_01.jpg,Others
1668,NM106_01_02.jpg,Others
1669,NM106_01_03.jpg,Others
1670,NM106_01_04.jpg,Others
1671,NM106_01_05.jpg,Others
1672,NM106_01_06.jpg,Others
1673,NM106_01_07.jpg,Others
1674,NM106_01_08.jpg,Others
1675,NM106_01_09.jpg,Others
1676,NM106_01_10.jpg,Others
1677,NM106_01_11.jpg,Others
1678,NM106_01_12.jpg,Others
1679,NM106_01_13.jpg,Others
1680,NM107_01_00.jpg,Others
1681,NM107_01_01.jpg,Others
1682,NM107_01_02.jpg,Others
1683,NM107_01_03.jpg,Others
1684,NM107_01_04.jpg,Others
1685,NM107_01_05.jpg,Others
1686,NM107_01_06.jpg,Others
1687,NM107_01_07.jpg,Others
1688,NM107_01_08.jpg,Others
1689,NM107_01_09.jpg,Others
1690,NM107_01_10.jpg,Others
1691,NM107_01_11.jpg,Others
1692,NM107_01_12.jpg,Others
1693,NM107_01_13.jpg,Others
1694,NM108_01_00.jpg,Others
1695,NM108_01_01.jpg,Others
1696,NM108_01_02.jpg,Others
1697,NM108_01_03.jpg,Others
1698,NM108_01_04.jpg,Others
1699,NM108_01_05.jpg,Others
1700,NM108_01_06.jpg,Others
1701,NM108_01_07.jpg,Others
1702,NM108_01_08.jpg,Others
1703,NM108_01_09.jpg,Others
1704,NM108_01_10.jpg,Others
1705,NM108_01_11.jpg,Others
1706,NM108_01_12.jpg,Others
1707,NM108_01_13.jpg,Others
1708,NM109_01_00.jpg,Others
1709,NM109_01_01.jpg,Others
1710,NM109_01_02.jpg,Others
1711,NM109_01_03.jpg,Others
1712,NM109_01_04.jpg,Others
1713,NM109_01_05.jpg,Others
1714,NM109_01_06.jpg,Others
1715,NM109_01_07.jpg,Others
1716,NM109_01_08.jpg,Others
1717,NM109_01_09.jpg,Others
1718,NM109_01_10.jpg,Others
1719,NM109_01_11.jpg,Others
1720,NM109_01_12.jpg,Others
1721,NM109_01_13.jpg,Others
1722,NM10_01_00.jpg,Others
1723,NM10_01_01.jpg,Others
1724,NM10_01_02.jpg,Others
1725,NM10_01_03.jpg,Others
1726,NM10_01_04.jpg,Others
1727,NM10_01_05.jpg,Others
1728,NM10_01_06.jpg,Others
1729,NM10_01_07.jpg,Others
1730,NM10_01_08.jpg,Others
1731,NM10_01_09.jpg,Others
1732,NM10_01_10.jpg,Others
1733,NM10_01_11.jpg,Others
1734,NM10_01_12.jpg,Others
1735,NM10_01_13.jpg,Others
1736,NM110_01_00.jpg,Others
1737,NM110_01_01.jpg,Others
1738,NM110_01_02.jpg,Others
1739,NM110_01_03.jpg,Others
1740,NM110_01_04.jpg,Others
1741,NM110_01_05.jpg,Others
1742,NM110_01_06.jpg,Others
1743,NM110_01_07.jpg,Others
1744,NM110_01_08.jpg,Others
1745,NM110_01_09.jpg,Others
1746,NM110_01_10.jpg,Others
1747,NM110_01_11.jpg,Others
1748,NM110_01_12.jpg,Others
1749,NM110_01_13.jpg,Others
1750,NM11_01_00.jpg,Others
1751,NM11_01_01.jpg,Others
1752,NM11_01_02.jpg,Others
1753,NM11_01_03.jpg,Others
1754,NM11_01_04.jpg,Others
1755,NM11_01_05.jpg,Others
1756,NM11_01_06.jpg,Others
1757,NM11_01_07.jpg,Others
1758,NM11_01_08.jpg,Others
1759,NM11_01_09.jpg,Others
1760,NM11_01_10.jpg,Others
1761,NM11_01_11.jpg,Others
1762,NM11_01_12.jpg,Others
1763,NM11_01_13.jpg,Others
1764,NM12_01_00.jpg,Others
1765,NM12_01_01.jpg,Others
1766,NM12_01_02.jpg,Others
1767,NM12_01_03.jpg,Others
1768,NM12_01_04.jpg,Others
1769,NM12_01_05.jpg,Others
1770,NM12_01_06.jpg,Others
1771,NM12_01_07.jpg,Others
1772,NM12_01_08.jpg,Others
1773,NM12_01_09.jpg,Others
1774,NM12_01_10.jpg,Others
1775,NM12_01_11.jpg,Others
1776,NM12_01_12.jpg,Others
1777,NM12_01_13.jpg,Others
1778,NM13_01_00.jpg,Others
1779,NM13_01_01.jpg,Others
1780,NM13_01_02.jpg,Others
1781,NM13_01_03.jpg,Others
1782,NM13_01_04.jpg,Others
1783,NM13_01_05.jpg,Others
1784,NM13_01_06.jpg,Others
1785,NM13_01_07.jpg,Others
1786,NM13_01_08.jpg,Others
1787,NM13_01_09.jpg,Others
1788,NM13_01_10.jpg,Others
1789,NM13_01_11.jpg,Others
1790,NM13_01_12.jpg,Others
1791,NM13_01_13.jpg,Others
1792,NM14_01_00.jpg,Others
1793,NM14_01_01.jpg,Others
1794,NM14_01_02.jpg,Others
1795,NM14_01_03.jpg,Others
1796,NM14_01_04.jpg,Others
1797,NM14_01_05.jpg,Others
1798,NM14_01_06.jpg,Others
1799,NM14_01_07.jpg,Others
1800,NM14_01_08.jpg,Others
1801,NM14_01_09.jpg,Others
1802,NM14_01_10.jpg,Others
1803,NM14_01_11.jpg,Others
1804,NM14_01_12.jpg,Others
1805,NM14_01_13.jpg,Others
1806,NM15_01_00.jpg,Others
1807,NM15_01_01.jpg,Others
1808,NM15_01_02.jpg,Others
1809,NM15_01_03.jpg,Others
1810,NM15_01_04.jpg,Others
1811,NM15_01_05.jpg,Others
1812,NM15_01_06.jpg,Others
1813,NM15_01_07.jpg,Others
1814,NM15_01_08.jpg,Others
1815,NM15_01_09.jpg,Others
1816,NM15_01_10.jpg,Others
1817,NM15_01_11.jpg,Others
1818,NM15_01_12.jpg,Others
1819,NM15_01_13.jpg,Others
1820,NM15_02_00.jpg,Others
1821,NM15_02_01.jpg,Others
1822,NM15_02_02.jpg,Others
1823,NM15_02_03.jpg,Others
1824,NM15_02_04.jpg,Others
1825,NM15_02_05.jpg,Others
1826,NM15_02_06.jpg,Others
1827,NM15_02_07.jpg,Others
1828,NM15_02_08.jpg,Others
1829,NM15_02_09.jpg,Others
1830,NM15_02_10.jpg,Others
1831,NM15_02_11.jpg,Others
1832,NM15_02_12.jpg,Others
1833,NM15_02_13.jpg,Others
1834,NM17_01_00.jpg,Others
1835,NM17_01_01.jpg,Others
1836,NM17_01_02.jpg,Others
1837,NM17_01_03.jpg,Others
1838,NM17_01_04.jpg,Others
1839,NM17_01_05.jpg,Others
1840,NM17_01_06.jpg,Others
1841,NM17_01_07.jpg,Others
1842,NM17_01_08.jpg,Others
1843,NM17_01_09.jpg,Others
1844,NM17_01_10.jpg,Others
1845,NM17_01_11.jpg,Others
1846,NM17_01_12.jpg,Others
1847,NM17_01_13.jpg,Others
1848,NM18_01_00.jpg,Others
1849,NM18_01_01.jpg,Others
1850,NM18_01_02.jpg,Others
1851,NM18_01_03.jpg,Others
1852,NM18_01_04.jpg,Others
1853,NM18_01_05.jpg,Others
1854,NM18_01_06.jpg,Others
1855,NM18_01_07.jpg,Others
1856,NM18_01_08.jpg,Others
1857,NM18_01_09.jpg,Others
1858,NM18_01_10.jpg,Others
1859,NM18_01_11.jpg,Others
1860,NM18_01_12.jpg,Others
1861,NM18_01_13.jpg,Others
1862,NM19_01_00.jpg,Others
1863,NM19_01_01.jpg,Others
1864,NM19_01_02.jpg,Others
1865,NM19_01_03.jpg,Others
1866,NM19_01_04.jpg,Others
1867,NM19_01_05.jpg,Others
1868,NM19_01_06.jpg,Others
1869,NM19_01_07.jpg,Others
1870,NM19_01_08.jpg,Others
1871,NM19_01_09.jpg,Others
1872,NM19_01_10.jpg,Others
1873,NM19_01_11.jpg,Others
1874,NM19_01_12.jpg,Others
1875,NM19_01_13.jpg,Others
1876,NM20_01_00.jpg,Others
1877,NM20_01_01.jpg,Others
1878,NM20_01_02.jpg,Others
1879,NM20_01_03.jpg,Others
1880,NM20_01_04.jpg,Others
1881,NM20_01_05.jpg,Others
1882,NM20_01_06.jpg,Others
1883,NM20_01_07.jpg,Others
1884,NM20_01_08.jpg,Others
1885,NM20_01_09.jpg,Others
1886,NM20_01_10.jpg,Others
1887,NM20_01_11.jpg,Others
1888,NM20_01_12.jpg,Others
1889,NM20_01_13.jpg,Others
1890,NM21_01_00.jpg,Others
1891,NM21_01_01.jpg,Others
1892,NM21_01_02.jpg,Others
1893,NM21_01_03.jpg,Others
1894,NM21_01_04.jpg,Others
1895,NM21_01_05.jpg,Others
1896,NM21_01_06.jpg,Others
1897,NM21_01_07.jpg,Others
1898,NM21_01_08.jpg,Others
1899,NM21_01_09.jpg,Others
1900,NM21_01_10.jpg,Others
1901,NM21_01_11.jpg,Others
1902,NM21_01_12.jpg,Others
1903,NM21_01_13.jpg,Others
1904,NM22_01_00.jpg,Others
1905,NM22_01_01.jpg,Others
1906,NM22_01_02.jpg,Others
1907,NM22_01_03.jpg,Others
1908,NM22_01_04.jpg,Others
1909,NM22_01_05.jpg,Others
1910,NM22_01_06.jpg,Others
1911,NM22_01_07.jpg,Others
1912,NM22_01_08.jpg,Others
1913,NM22_01_09.jpg,Others
1914,NM22_01_10.jpg,Others
1915,NM22_01_11.jpg,Others
1916,NM22_01_12.jpg,Others
1917,NM22_01_13.jpg,Others
1918,NM23_01_00.jpg,Others
1919,NM23_01_01.jpg,Others
1920,NM23_01_02.jpg,Others
1921,NM23_01_03.jpg,Others
1922,NM23_01_04.jpg,Others
1923,NM23_01_05.jpg,Others
1924,NM23_01_06.jpg,Others
1925,NM23_01_07.jpg,Others
1926,NM23_01_08.jpg,Others
1927,NM23_01_09.jpg,Others
1928,NM23_01_10.jpg,Others
1929,NM23_01_11.jpg,Others
1930,NM23_01_12.jpg,Others
1931,NM23_01_13.jpg,Others
1932,NM24_01_00.jpg,Others
1933,NM24_01_01.jpg,Others
1934,NM24_01_02.jpg,Others
1935,NM24_01_03.jpg,Others
1936,NM24_01_04.jpg,Others
1937,NM24_01_05.jpg,Others
1938,NM24_01_06.jpg,Others
1939,NM24_01_07.jpg,Others
1940,NM24_01_08.jpg,Others
1941,NM24_01_09.jpg,Others
1942,NM24_01_10.jpg,Others
1943,NM24_01_11.jpg,Others
1944,NM24_01_12.jpg,Others
1945,NM24_01_13.jpg,Others
1946,NM25_01_00.jpg,Others
1947,NM25_01_01.jpg,Others
1948,NM25_01_02.jpg,Others
1949,NM25_01_03.jpg,Others
1950,NM25_01_04.jpg,Others
1951,NM25_01_05.jpg,Others
1952,NM25_01_06.jpg,Others
1953,NM25_01_07.jpg,Others
1954,NM25_01_08.jpg,Others
1955,NM25_01_09.jpg,Others
1956,NM25_01_10.jpg,Others
1957,NM25_01_11.jpg,Others
1958,NM25_01_12.jpg,Others
1959,NM25_01_13.jpg,Others
1960,NM26_01_00.jpg,Others
1961,NM26_01_01.jpg,Others
1962,NM26_01_02.jpg,Others
1963,NM26_01_03.jpg,Others
1964,NM26_01_04.jpg,Others
1965,NM26_01_05.jpg,Others
1966,NM26_01_06.jpg,Others
1967,NM26_01_07.jpg,Others
1968,NM26_01_08.jpg,Others
1969,NM26_01_09.jpg,Others
1970,NM26_01_10.jpg,Others
1971,NM26_01_11.jpg,Others
1972,NM26_01_12.jpg,Others
1973,NM26_01_13.jpg,Others
1974,NM27_01_00.jpg,Others
1975,NM27_01_01.jpg,Others
1976,NM27_01_02.jpg,Others
1977,NM27_01_03.jpg,Others
1978,NM27_01_04.jpg,Others
1979,NM27_01_05.jpg,Others
1980,NM27_01_06.jpg,Others
1981,NM27_01_07.jpg,Others
1982,NM27_01_08.jpg,Others
1983,NM27_01_09.jpg,Others
1984,NM27_01_10.jpg,Others
1985,NM27_01_11.jpg,Others
1986,NM27_01_12.jpg,Others
1987,NM27_01_13.jpg,Others
1988,NM28_01_00.jpg,Others
1989,NM28_01_01.jpg,Others
1990,NM28_01_02.jpg,Others
1991,NM28_01_03.jpg,Others
1992,NM28_01_04.jpg,Others
1993,NM28_01_05.jpg,Others
1994,NM28_01_06.jpg,Others
1995,NM28_01_07.jpg,Others
1996,NM28_01_08.jpg,Others
1997,NM28_01_09.jpg,Others
1998,NM28_01_10.jpg,Others
1999,NM28_01_11.jpg,Others
2000,NM28_01_12.jpg,Others
2001,NM28_01_13.jpg,Others
2002,NM29_01_00.jpg,Others
2003,NM29_01_01.jpg,Others
2004,NM29_01_02.jpg,Others
2005,NM29_01_03.jpg,Others
2006,NM29_01_04.jpg,Others
2007,NM29_01_05.jpg,Others
2008,NM29_01_06.jpg,Others
2009,NM29_01_07.jpg,Others
2010,NM29_01_08.jpg,Others
2011,NM29_01_09.jpg,Others
2012,NM29_01_10.jpg,Others
2013,NM29_01_11.jpg,Others
2014,NM29_01_12.jpg,Others
2015,NM29_01_13.jpg,Others
2016,NM30_01_00.jpg,Others
2017,NM30_01_01.jpg,Others
2018,NM30_01_02.jpg,Others
2019,NM30_01_03.jpg,Others
2020,NM30_01_04.jpg,Others
2021,NM30_01_05.jpg,Others
2022,NM30_01_06.jpg,Others
2023,NM30_01_07.jpg,Others
2024,NM30_01_08.jpg,Others
2025,NM30_01_09.jpg,Others
2026,NM30_01_10.jpg,Others
2027,NM30_01_11.jpg,Others
2028,NM30_01_12.jpg,Others
2029,NM30_01_13.jpg,Others
2030,NM31_01_00.jpg,Others
2031,NM31_01_01.jpg,Others
2032,NM31_01_02.jpg,Others
2033,NM31_01_03.jpg,Others
2034,NM31_01_04.jpg,Others
2035,NM31_01_05.jpg,Others
2036,NM31_01_06.jpg,Others
2037,NM31_01_07.jpg,Others
2038,NM31_01_08.jpg,Others
2039,NM31_01_09.jpg,Others
2040,NM31_01_10.jpg,Others
2041,NM31_01_11.jpg,Others
2042,NM31_01_12.jpg,Others
2043,NM31_01_13.jpg,Others
2044,NM32_01_00.jpg,Others
2045,NM32_01_01.jpg,Others
2046,NM32_01_02.jpg,Others
2047,NM32_01_03.jpg,Others
2048,NM32_01_04.jpg,Others
2049,NM32_01_05.jpg,Others
2050,NM32_01_06.jpg,Others
2051,NM32_01_07.jpg,Others
2052,NM32_01_08.jpg,Others
2053,NM32_01_09.jpg,Others
2054,NM32_01_10.jpg,Others
2055,NM32_01_11.jpg,Others
2056,NM32_01_12.jpg,Others
2057,NM32_01_13.jpg,Others
2058,NM33_01_00.jpg,Others
2059,NM33_01_01.jpg,Others
2060,NM33_01_02.jpg,Others
2061,NM33_01_03.jpg,Others
2062,NM33_01_04.jpg,Others
2063,NM33_01_05.jpg,Others
2064,NM33_01_06.jpg,Others
2065,NM33_01_07.jpg,Others
2066,NM33_01_08.jpg,Others
2067,NM33_01_09.jpg,Others
2068,NM33_01_10.jpg,Others
2069,NM33_01_11.jpg,Others
2070,NM33_01_12.jpg,Others
2071,NM33_01_13.jpg,Others
2072,NM33_02_00.jpg,Others
2073,NM33_02_01.jpg,Others
2074,NM33_02_02.jpg,Others
2075,NM33_02_03.jpg,Others
2076,NM33_02_04.jpg,Others
2077,NM33_02_05.jpg,Others
2078,NM33_02_06.jpg,Others
2079,NM33_02_07.jpg,Others
2080,NM33_02_08.jpg,Others
2081,NM33_02_09.jpg,Others
2082,NM33_02_10.jpg,Others
2083,NM33_02_11.jpg,Others
2084,NM33_02_12.jpg,Others
2085,NM33_02_13.jpg,Others
2086,NM35_01_00.jpg,Others
2087,NM35_01_01.jpg,Others
2088,NM35_01_02.jpg,Others
2089,NM35_01_03.jpg,Others
2090,NM35_01_04.jpg,Others
2091,NM35_01_05.jpg,Others
2092,NM35_01_06.jpg,Others
2093,NM35_01_07.jpg,Others
2094,NM35_01_08.jpg,Others
2095,NM35_01_09.jpg,Others
2096,NM35_01_10.jpg,Others
2097,NM35_01_11.jpg,Others
2098,NM35_01_12.jpg,Others
2099,NM35_01_13.jpg,Others
2100,NM36_01_00.jpg,Others
2101,NM36_01_01.jpg,Others
2102,NM36_01_02.jpg,Others
2103,NM36_01_03.jpg,Others
2104,NM36_01_04.jpg,Others
2105,NM36_01_05.jpg,Others
2106,NM36_01_06.jpg,Others
2107,NM36_01_07.jpg,Others
2108,NM36_01_08.jpg,Others
2109,NM36_01_09.jpg,Others
2110,NM36_01_10.jpg,Others
2111,NM36_01_11.jpg,Others
2112,NM36_01_12.jpg,Others
2113,NM36_01_13.jpg,Others
2114,NM37_01_00.jpg,Others
2115,NM37_01_01.jpg,Others
2116,NM37_01_02.jpg,Others
2117,NM37_01_03.jpg,Others
2118,NM37_01_04.jpg,Others
2119,NM37_01_05.jpg,Others
2120,NM37_01_06.jpg,Others
2121,NM37_01_07.jpg,Others
2122,NM37_01_08.jpg,Others
2123,NM37_01_09.jpg,Others
2124,NM37_01_10.jpg,Others
2125,NM37_01_11.jpg,Others
2126,NM37_01_12.jpg,Others
2127,NM37_01_13.jpg,Others
2128,NM38_01_00.jpg,Others
2129,NM38_01_01.jpg,Others
2130,NM38_01_02.jpg,Others
2131,NM38_01_03.jpg,Others
2132,NM38_01_04.jpg,Others
2133,NM38_01_05.jpg,Others
2134,NM38_01_06.jpg,Others
2135,NM38_01_07.jpg,Others
2136,NM38_01_08.jpg,Others
2137,NM38_01_09.jpg,Others
2138,NM38_01_10.jpg,Others
2139,NM38_01_11.jpg,Others
2140,NM38_01_12.jpg,Others
2141,NM38_01_13.jpg,Others
2142,NM39_01_00.jpg,Others
2143,NM39_01_01.jpg,Others
2144,NM39_01_02.jpg,Others
2145,NM39_01_03.jpg,Others
2146,NM39_01_04.jpg,Others
2147,NM39_01_05.jpg,Others
2148,NM39_01_06.jpg,Others
2149,NM39_01_07.jpg,Others
2150,NM39_01_08.jpg,Others
2151,NM39_01_09.jpg,Others
2152,NM39_01_10.jpg,Others
2153,NM39_01_11.jpg,Others
2154,NM39_01_12.jpg,Others
2155,NM39_01_13.jpg,Others
2156,NM40_01_00.jpg,Others
2157,NM40_01_01.jpg,Others
2158,NM40_01_02.jpg,Others
2159,NM40_01_03.jpg,Others
2160,NM40_01_04.jpg,Others
2161,NM40_01_05.jpg,Others
2162,NM40_01_06.jpg,Others
2163,NM40_01_07.jpg,Others
2164,NM40_01_08.jpg,Others
2165,NM40_01_09.jpg,Others
2166,NM40_01_10.jpg,Others
2167,NM40_01_11.jpg,Others
2168,NM40_01_12.jpg,Others
2169,NM40_01_13.jpg,Others
2170,NM41_01_00.jpg,Others
2171,NM41_01_01.jpg,Others
2172,NM41_01_02.jpg,Others
2173,NM41_01_03.jpg,Others
2174,NM41_01_04.jpg,Others
2175,NM41_01_05.jpg,Others
2176,NM41_01_06.jpg,Others
2177,NM41_01_07.jpg,Others
2178,NM41_01_08.jpg,Others
2179,NM41_01_09.jpg,Others
2180,NM41_01_10.jpg,Others
2181,NM41_01_11.jpg,Others
2182,NM41_01_12.jpg,Others
2183,NM41_01_13.jpg,Others
2184,NM41_02_00.jpg,Others
2185,NM41_02_01.jpg,Others
2186,NM41_02_02.jpg,Others
2187,NM41_02_03.jpg,Others
2188,NM41_02_04.jpg,Others
2189,NM41_02_05.jpg,Others
2190,NM41_02_06.jpg,Others
2191,NM41_02_07.jpg,Others
2192,NM41_02_08.jpg,Others
2193,NM41_02_09.jpg,Others
2194,NM41_02_10.jpg,Others
2195,NM41_02_11.jpg,Others
2196,NM41_02_12.jpg,Others
2197,NM41_02_13.jpg,Others
2198,NM42_01_00.jpg,Others
2199,NM42_01_01.jpg,Others
2200,NM42_01_02.jpg,Others
2201,NM42_01_03.jpg,Others
2202,NM42_01_04.jpg,Others
2203,NM42_01_05.jpg,Others
2204,NM42_01_06.jpg,Others
2205,NM42_01_07.jpg,Others
2206,NM42_01_08.jpg,Others
2207,NM42_01_09.jpg,Others
2208,NM42_01_10.jpg,Others
2209,NM42_01_11.jpg,Others
2210,NM42_01_12.jpg,Others
2211,NM42_01_13.jpg,Others
2212,NM43_01_00.jpg,Others
2213,NM43_01_01.jpg,Others
2214,NM43_01_02.jpg,Others
2215,NM43_01_03.jpg,Others
2216,NM43_01_04.jpg,Others
2217,NM43_01_05.jpg,Others
2218,NM43_01_06.jpg,Others
2219,NM43_01_07.jpg,Others
2220,NM43_01_08.jpg,Others
2221,NM43_01_09.jpg,Others
2222,NM43_01_10.jpg,Others
2223,NM43_01_11.jpg,Others
2224,NM43_01_12.jpg,Others
2225,NM43_01_13.jpg,Others
2226,NM43_02_00.jpg,Others
2227,NM43_02_01.jpg,Others
2228,NM43_02_02.jpg,Others
2229,NM43_02_03.jpg,Others
2230,NM43_02_04.jpg,Others
2231,NM43_02_05.jpg,Others
2232,NM43_02_06.jpg,Others
2233,NM43_02_07.jpg,Others
2234,NM43_02_08.jpg,Others
2235,NM43_02_09.jpg,Others
2236,NM43_02_10.jpg,Others
2237,NM43_02_11.jpg,Others
2238,NM43_02_12.jpg,Others
2239,NM43_02_13.jpg,Others
2240,NM43_03_00.jpg,Others
2241,NM43_03_01.jpg,Others
2242,NM43_03_02.jpg,Others
2243,NM43_03_03.jpg,Others
2244,NM43_03_04.jpg,Others
2245,NM43_03_05.jpg,Others
2246,NM43_03_06.jpg,Others
2247,NM43_03_07.jpg,Others
2248,NM43_03_08.jpg,Others
2249,NM43_03_09.jpg,Others
2250,NM43_03_10.jpg,Others
2251,NM43_03_11.jpg,Others
2252,NM43_03_12.jpg,Others
2253,NM43_03_13.jpg,Others
2254,NM43_04_00.jpg,Others
2255,NM43_04_01.jpg,Others
2256,NM43_04_02.jpg,Others
2257,NM43_04_03.jpg,Others
2258,NM43_04_04.jpg,Others
2259,NM43_04_05.jpg,Others
2260,NM43_04_06.jpg,Others
2261,NM43_04_07.jpg,Others
2262,NM43_04_08.jpg,Others
2263,NM43_04_09.jpg,Others
2264,NM43_04_10.jpg,Others
2265,NM43_04_11.jpg,Others
2266,NM43_04_12.jpg,Others
2267,NM43_04_13.jpg,Others
2268,NM43_05_00.jpg,Others
2269,NM43_05_01.jpg,Others
2270,NM43_05_02.jpg,Others
2271,NM43_05_03.jpg,Others
2272,NM43_05_04.jpg,Others
2273,NM43_05_05.jpg,Others
2274,NM43_05_06.jpg,Others
2275,NM43_05_07.jpg,Others
2276,NM43_05_08.jpg,Others
2277,NM43_05_09.jpg,Others
2278,NM43_05_10.jpg,Others
2279,NM43_05_11.jpg,Others
2280,NM43_05_12.jpg,Others
2281,NM43_05_13.jpg,Others
2282,NM44_01_00.jpg,Others
2283,NM44_01_01.jpg,Others
2284,NM44_01_02.jpg,Others
2285,NM44_01_03.jpg,Others
2286,NM44_01_04.jpg,Others
2287,NM44_01_05.jpg,Others
2288,NM44_01_06.jpg,Others
2289,NM44_01_07.jpg,Others
2290,NM44_01_08.jpg,Others
2291,NM44_01_09.jpg,Others
2292,NM44_01_10.jpg,Others
2293,NM44_01_11.jpg,Others
2294,NM44_01_12.jpg,Others
2295,NM44_01_13.jpg,Others
2296,NM45_01_00.jpg,Others
2297,NM45_01_01.jpg,Others
2298,NM45_01_02.jpg,Others
2299,NM45_01_03.jpg,Others
2300,NM45_01_04.jpg,Others
2301,NM45_01_05.jpg,Others
2302,NM45_01_06.jpg,Others
2303,NM45_01_07.jpg,Others
2304,NM45_01_08.jpg,Others
2305,NM45_01_09.jpg,Others
2306,NM45_01_10.jpg,Others
2307,NM45_01_11.jpg,Others
2308,NM45_01_12.jpg,Others
2309,NM45_01_13.jpg,Others
2310,NM45_02_00.jpg,Others
2311,NM45_02_01.jpg,Others
2312,NM45_02_02.jpg,Others
2313,NM45_02_03.jpg,Others
2314,NM45_02_04.jpg,Others
2315,NM45_02_05.jpg,Others
2316,NM45_02_06.jpg,Others
2317,NM45_02_07.jpg,Others
2318,NM45_02_08.jpg,Others
2319,NM45_02_09.jpg,Others
2320,NM45_02_10.jpg,Others
2321,NM45_02_11.jpg,Others
2322,NM45_02_12.jpg,Others
2323,NM45_02_13.jpg,Others
2324,NM46_01_00.jpg,Others
2325,NM46_01_01.jpg,Others
2326,NM46_01_02.jpg,Others
2327,NM46_01_03.jpg,Others
2328,NM46_01_04.jpg,Others
2329,NM46_01_05.jpg,Others
2330,NM46_01_06.jpg,Others
2331,NM46_01_07.jpg,Others
2332,NM46_01_08.jpg,Others
2333,NM46_01_09.jpg,Others
2334,NM46_01_10.jpg,Others
2335,NM46_01_11.jpg,Others
2336,NM46_01_12.jpg,Others
2337,NM46_01_13.jpg,Others
2338,NM47_01_00.jpg,Others
2339,NM47_01_01.jpg,Others
2340,NM47_01_02.jpg,Others
2341,NM47_01_03.jpg,Others
2342,NM47_01_04.jpg,Others
2343,NM47_01_05.jpg,Others
2344,NM47_01_06.jpg,Others
2345,NM47_01_07.jpg,Others
2346,NM47_01_08.jpg,Others
2347,NM47_01_09.jpg,Others
2348,NM47_01_10.jpg,Others
2349,NM47_01_11.jpg,Others
2350,NM47_01_12.jpg,Others
2351,NM47_01_13.jpg,Others
2352,NM47_02_00.jpg,Others
2353,NM47_02_01.jpg,Others
2354,NM47_02_02.jpg,Others
2355,NM47_02_03.jpg,Others
2356,NM47_02_04.jpg,Others
2357,NM47_02_05.jpg,Others
2358,NM47_02_06.jpg,Others
2359,NM47_02_07.jpg,Others
2360,NM47_02_08.jpg,Others
2361,NM47_02_09.jpg,Others
2362,NM47_02_10.jpg,Others
2363,NM47_02_11.jpg,Others
2364,NM47_02_12.jpg,Others
2365,NM47_02_13.jpg,Others
2366,NM48_01_00.jpg,Others
2367,NM48_01_01.jpg,Others
2368,NM48_01_02.jpg,Others
2369,NM48_01_03.jpg,Others
2370,NM48_01_04.jpg,Others
2371,NM48_01_05.jpg,Others
2372,NM48_01_06.jpg,Others
2373,NM48_01_07.jpg,Others
2374,NM48_01_08.jpg,Others
2375,NM48_01_09.jpg,Others
2376,NM48_01_10.jpg,Others
2377,NM48_01_11.jpg,Others
2378,NM48_01_12.jpg,Others
2379,NM48_01_13.jpg,Others
2380,NM49_01_00.jpg,Others
2381,NM49_01_01.jpg,Others
2382,NM49_01_02.jpg,Others
2383,NM49_01_03.jpg,Others
2384,NM49_01_04.jpg,Others
2385,NM49_01_05.jpg,Others
2386,NM49_01_06.jpg,Others
2387,NM49_01_07.jpg,Others
2388,NM49_01_08.jpg,Others
2389,NM49_01_09.jpg,Others
2390,NM49_01_10.jpg,Others
2391,NM49_01_11.jpg,Others
2392,NM49_01_12.jpg,Others
2393,NM49_01_13.jpg,Others
2394,NM50_01_00.jpg,Others
2395,NM50_01_01.jpg,Others
2396,NM50_01_02.jpg,Others
2397,NM50_01_03.jpg,Others
2398,NM50_01_04.jpg,Others
2399,NM50_01_05.jpg,Others
2400,NM50_01_06.jpg,Others
2401,NM50_01_07.jpg,Others
2402,NM50_01_08.jpg,Others
2403,NM50_01_09.jpg,Others
2404,NM50_01_10.jpg,Others
2405,NM50_01_11.jpg,Others
2406,NM50_01_12.jpg,Others
2407,NM50_01_13.jpg,Others
2408,NM51_01_00.jpg,Others
2409,NM51_01_01.jpg,Others
2410,NM51_01_02.jpg,Others
2411,NM51_01_03.jpg,Others
2412,NM51_01_04.jpg,Others
2413,NM51_01_05.jpg,Others
2414,NM51_01_06.jpg,Others
2415,NM51_01_07.jpg,Others
2416,NM51_01_08.jpg,Others
2417,NM51_01_09.jpg,Others
2418,NM51_01_10.jpg,Others
2419,NM51_01_11.jpg,Others
2420,NM51_01_12.jpg,Others
2421,NM51_01_13.jpg,Others
2422,NM52_01_00.jpg,Others
2423,NM52_01_01.jpg,Others
2424,NM52_01_02.jpg,Others
2425,NM52_01_03.jpg,Others
2426,NM52_01_04.jpg,Others
2427,NM52_01_05.jpg,Others
2428,NM52_01_06.jpg,Others
2429,NM52_01_07.jpg,Others
2430,NM52_01_08.jpg,Others
2431,NM52_01_09.jpg,Others
2432,NM52_01_10.jpg,Others
2433,NM52_01_11.jpg,Others
2434,NM52_01_12.jpg,Others
2435,NM52_01_13.jpg,Others
2436,NM53_01_00.jpg,Others
2437,NM53_01_01.jpg,Others
2438,NM53_01_02.jpg,Others
2439,NM53_01_03.jpg,Others
2440,NM53_01_04.jpg,Others
2441,NM53_01_05.jpg,Others
2442,NM53_01_06.jpg,Others
2443,NM53_01_07.jpg,Others
2444,NM53_01_08.jpg,Others
2445,NM53_01_09.jpg,Others
2446,NM53_01_10.jpg,Others
2447,NM53_01_11.jpg,Others
2448,NM53_01_12.jpg,Others
2449,NM53_01_13.jpg,Others
2450,NM54_01_00.jpg,Others
2451,NM54_01_01.jpg,Others
2452,NM54_01_02.jpg,Others
2453,NM54_01_03.jpg,Others
2454,NM54_01_04.jpg,Others
2455,NM54_01_05.jpg,Others
2456,NM54_01_06.jpg,Others
2457,NM54_01_07.jpg,Others
2458,NM54_01_08.jpg,Others
2459,NM54_01_09.jpg,Others
2460,NM54_01_10.jpg,Others
2461,NM54_01_11.jpg,Others
2462,NM54_01_12.jpg,Others
2463,NM54_01_13.jpg,Others
2464,NM54_02_00.jpg,Others
2465,NM54_02_01.jpg,Others
2466,NM54_02_02.jpg,Others
2467,NM54_02_03.jpg,Others
2468,NM54_02_04.jpg,Others
2469,NM54_02_05.jpg,Others
2470,NM54_02_06.jpg,Others
2471,NM54_02_07.jpg,Others
2472,NM54_02_08.jpg,Others
2473,NM54_02_09.jpg,Others
2474,NM54_02_10.jpg,Others
2475,NM54_02_11.jpg,Others
2476,NM54_02_12.jpg,Others
2477,NM54_02_13.jpg,Others
2478,NM55_01_00.jpg,Others
2479,NM55_01_01.jpg,Others
2480,NM55_01_02.jpg,Others
2481,NM55_01_03.jpg,Others
2482,NM55_01_04.jpg,Others
2483,NM55_01_05.jpg,Others
2484,NM55_01_06.jpg,Others
2485,NM55_01_07.jpg,Others
2486,NM55_01_08.jpg,Others
2487,NM55_01_09.jpg,Others
2488,NM55_01_10.jpg,Others
2489,NM55_01_11.jpg,Others
2490,NM55_01_12.jpg,Others
2491,NM55_01_13.jpg,Others
2492,NM55_02_00.jpg,Others
2493,NM55_02_01.jpg,Others
2494,NM55_02_02.jpg,Others
2495,NM55_02_03.jpg,Others
2496,NM55_02_04.jpg,Others
2497,NM55_02_05.jpg,Others
2498,NM55_02_06.jpg,Others
2499,NM55_02_07.jpg,Others
2500,NM55_02_08.jpg,Others
2501,NM55_02_09.jpg,Others
2502,NM55_02_10.jpg,Others
2503,NM55_02_11.jpg,Others
2504,NM55_02_12.jpg,Others
2505,NM55_02_13.jpg,Others
2506,NM56_01_00.jpg,Others
2507,NM56_01_01.jpg,Others
2508,NM56_01_02.jpg,Others
2509,NM56_01_03.jpg,Others
2510,NM56_01_04.jpg,Others
2511,NM56_01_05.jpg,Others
2512,NM56_01_06.jpg,Others
2513,NM56_01_07.jpg,Others
2514,NM56_01_08.jpg,Others
2515,NM56_01_09.jpg,Others
2516,NM56_01_10.jpg,Others
2517,NM56_01_11.jpg,Others
2518,NM56_01_12.jpg,Others
2519,NM56_01_13.jpg,Others
2520,NM56_02_00.jpg,Others
2521,NM56_02_01.jpg,Others
2522,NM56_02_02.jpg,Others
2523,NM56_02_03.jpg,Others
2524,NM56_02_04.jpg,Others
2525,NM56_02_05.jpg,Others
2526,NM56_02_06.jpg,Others
2527,NM56_02_07.jpg,Others
2528,NM56_02_08.jpg,Others
2529,NM56_02_09.jpg,Others
2530,NM56_02_10.jpg,Others
2531,NM56_02_11.jpg,Others
2532,NM56_02_12.jpg,Others
2533,NM56_02_13.jpg,Others
2534,NM57_01_00.jpg,Others
2535,NM57_01_01.jpg,Others
2536,NM57_01_02.jpg,Others
2537,NM57_01_03.jpg,Others
2538,NM57_01_04.jpg,Others
2539,NM57_01_05.jpg,Others
2540,NM57_01_06.jpg,Others
2541,NM57_01_07.jpg,Others
2542,NM57_01_08.jpg,Others
2543,NM57_01_09.jpg,Others
2544,NM57_01_10.jpg,Others
2545,NM57_01_11.jpg,Others
2546,NM57_01_12.jpg,Others
2547,NM57_01_13.jpg,Others
2548,NM57_02_00.jpg,Others
2549,NM57_02_01.jpg,Others
2550,NM57_02_02.jpg,Others
2551,NM57_02_03.jpg,Others
2552,NM57_02_04.jpg,Others
2553,NM57_02_05.jpg,Others
2554,NM57_02_06.jpg,Others
2555,NM57_02_07.jpg,Others
2556,NM57_02_08.jpg,Others
2557,NM57_02_09.jpg,Others
2558,NM57_02_10.jpg,Others
2559,NM57_02_11.jpg,Others
2560,NM57_02_12.jpg,Others
2561,NM57_02_13.jpg,Others
2562,NM58_01_00.jpg,Others
2563,NM58_01_01.jpg,Others
2564,NM58_01_02.jpg,Others
2565,NM58_01_03.jpg,Others
2566,NM58_01_04.jpg,Others
2567,NM58_01_05.jpg,Others
2568,NM58_01_06.jpg,Others
2569,NM58_01_07.jpg,Others
2570,NM58_01_08.jpg,Others
2571,NM58_01_09.jpg,Others
2572,NM58_01_10.jpg,Others
2573,NM58_01_11.jpg,Others
2574,NM58_01_12.jpg,Others
2575,NM58_01_13.jpg,Others
2576,NM58_02_00.jpg,Others
2577,NM58_02_01.jpg,Others
2578,NM58_02_02.jpg,Others
2579,NM58_02_03.jpg,Others
2580,NM58_02_04.jpg,Others
2581,NM58_02_05.jpg,Others
2582,NM58_02_06.jpg,Others
2583,NM58_02_07.jpg,Others
2584,NM58_02_08.jpg,Others
2585,NM58_02_09.jpg,Others
2586,NM58_02_10.jpg,Others
2587,NM58_02_11.jpg,Others
2588,NM58_02_12.jpg,Others
2589,NM58_02_13.jpg,Others
2590,NM59_01_00.jpg,Others
2591,NM59_01_01.jpg,Others
2592,NM59_01_02.jpg,Others
2593,NM59_01_03.jpg,Others
2594,NM59_01_04.jpg,Others
2595,NM59_01_05.jpg,Others
2596,NM59_01_06.jpg,Others
2597,NM59_01_07.jpg,Others
2598,NM59_01_08.jpg,Others
2599,NM59_01_09.jpg,Others
2600,NM59_01_10.jpg,Others
2601,NM59_01_11.jpg,Others
2602,NM59_01_12.jpg,Others
2603,NM59_01_13.jpg,Others
2604,NM60_01_00.jpg,Others
2605,NM60_01_01.jpg,Others
2606,NM60_01_02.jpg,Others
2607,NM60_01_03.jpg,Others
2608,NM60_01_04.jpg,Others
2609,NM60_01_05.jpg,Others
2610,NM60_01_06.jpg,Others
2611,NM60_01_07.jpg,Others
2612,NM60_01_08.jpg,Others
2613,NM60_01_09.jpg,Others
2614,NM60_01_10.jpg,Others
2615,NM60_01_11.jpg,Others
2616,NM60_01_12.jpg,Others
2617,NM60_01_13.jpg,Others
2618,NM61_01_00.jpg,Others
2619,NM61_01_01.jpg,Others
2620,NM61_01_02.jpg,Others
2621,NM61_01_03.jpg,Others
2622,NM61_01_04.jpg,Others
2623,NM61_01_05.jpg,Others
2624,NM61_01_06.jpg,Others
2625,NM61_01_07.jpg,Others
2626,NM61_01_08.jpg,Others
2627,NM61_01_09.jpg,Others
2628,NM61_01_10.jpg,Others
2629,NM61_01_11.jpg,Others
2630,NM61_01_12.jpg,Others
2631,NM61_01_13.jpg,Others
2632,NM62_01_00.jpg,Others
2633,NM62_01_01.jpg,Others
2634,NM62_01_02.jpg,Others
2635,NM62_01_03.jpg,Others
2636,NM62_01_04.jpg,Others
2637,NM62_01_05.jpg,Others
2638,NM62_01_06.jpg,Others
2639,NM62_01_07.jpg,Others
2640,NM62_01_08.jpg,Others
2641,NM62_01_09.jpg,Others
2642,NM62_01_10.jpg,Others
2643,NM62_01_11.jpg,Others
2644,NM62_01_12.jpg,Others
2645,NM62_01_13.jpg,Others
2646,NM63_01_00.jpg,Others
2647,NM63_01_01.jpg,Others
2648,NM63_01_02.jpg,Others
2649,NM63_01_03.jpg,Others
2650,NM63_01_04.jpg,Others
2651,NM63_01_05.jpg,Others
2652,NM63_01_06.jpg,Others
2653,NM63_01_07.jpg,Others
2654,NM63_01_08.jpg,Others
2655,NM63_01_09.jpg,Others
2656,NM63_01_10.jpg,Others
2657,NM63_01_11.jpg,Others
2658,NM63_01_12.jpg,Others
2659,NM63_01_13.jpg,Others
2660,NM64_01_00.jpg,Others
2661,NM64_01_01.jpg,Others
2662,NM64_01_02.jpg,Others
2663,NM64_01_03.jpg,Others
2664,NM64_01_04.jpg,Others
2665,NM64_01_05.jpg,Others
2666,NM64_01_06.jpg,Others
2667,NM64_01_07.jpg,Others
2668,NM64_01_08.jpg,Others
2669,NM64_01_09.jpg,Others
2670,NM64_01_10.jpg,Others
2671,NM64_01_11.jpg,Others
2672,NM64_01_12.jpg,Others
2673,NM64_01_13.jpg,Others
2674,NM65_01_00.jpg,Others
2675,NM65_01_01.jpg,Others
2676,NM65_01_02.jpg,Others
2677,NM65_01_03.jpg,Others
2678,NM65_01_04.jpg,Others
2679,NM65_01_05.jpg,Others
2680,NM65_01_06.jpg,Others
2681,NM65_01_07.jpg,Others
2682,NM65_01_08.jpg,Others
2683,NM65_01_09.jpg,Others
2684,NM65_01_10.jpg,Others
2685,NM65_01_11.jpg,Others
2686,NM65_01_12.jpg,Others
2687,NM65_01_13.jpg,Others
2688,NM66_01_00.jpg,Others
2689,NM66_01_01.jpg,Others
2690,NM66_01_02.jpg,Others
2691,NM66_01_03.jpg,Others
2692,NM66_01_04.jpg,Others
2693,NM66_01_05.jpg,Others
2694,NM66_01_06.jpg,Others
2695,NM66_01_07.jpg,Others
2696,NM66_01_08.jpg,Others
2697,NM66_01_09.jpg,Others
2698,NM66_01_10.jpg,Others
2699,NM66_01_11.jpg,Others
2700,NM66_01_12.jpg,Others
2701,NM66_01_13.jpg,Others
2702,NM67_01_00.jpg,Others
2703,NM67_01_01.jpg,Others
2704,NM67_01_02.jpg,Others
2705,NM67_01_03.jpg,Others
2706,NM67_01_04.jpg,Others
2707,NM67_01_05.jpg,Others
2708,NM67_01_06.jpg,Others
2709,NM67_01_07.jpg,Others
2710,NM67_01_08.jpg,Others
2711,NM67_01_09.jpg,Others
2712,NM67_01_10.jpg,Others
2713,NM67_01_11.jpg,Others
2714,NM67_01_12.jpg,Others
2715,NM67_01_13.jpg,Others
2716,NM68_01_00.jpg,Others
2717,NM68_01_01.jpg,Others
2718,NM68_01_02.jpg,Others
2719,NM68_01_03.jpg,Others
2720,NM68_01_04.jpg,Others
2721,NM68_01_05.jpg,Others
2722,NM68_01_06.jpg,Others
2723,NM68_01_07.jpg,Others
2724,NM68_01_08.jpg,Others
2725,NM68_01_09.jpg,Others
2726,NM68_01_10.jpg,Others
2727,NM68_01_11.jpg,Others
2728,NM68_01_12.jpg,Others
2729,NM68_01_13.jpg,Others
2730,NM69_01_00.jpg,Others
2731,NM69_01_01.jpg,Others
2732,NM69_01_02.jpg,Others
2733,NM69_01_03.jpg,Others
2734,NM69_01_04.jpg,Others
2735,NM69_01_05.jpg,Others
2736,NM69_01_06.jpg,Others
2737,NM69_01_07.jpg,Others
2738,NM69_01_08.jpg,Others
2739,NM69_01_09.jpg,Others
2740,NM69_01_10.jpg,Others
2741,NM69_01_11.jpg,Others
2742,NM69_01_12.jpg,Others
2743,NM69_01_13.jpg,Others
2744,NM70_01_00.jpg,Others
2745,NM70_01_01.jpg,Others
2746,NM70_01_02.jpg,Others
2747,NM70_01_03.jpg,Others
2748,NM70_01_04.jpg,Others
2749,NM70_01_05.jpg,Others
2750,NM70_01_06.jpg,Others
2751,NM70_01_07.jpg,Others
2752,NM70_01_08.jpg,Others
2753,NM70_01_09.jpg,Others
2754,NM70_01_10.jpg,Others
2755,NM70_01_11.jpg,Others
2756,NM70_01_12.jpg,Others
2757,NM70_01_13.jpg,Others
2758,NM71_01_00.jpg,Others
2759,NM71_01_01.jpg,Others
2760,NM71_01_02.jpg,Others
2761,NM71_01_03.jpg,Others
2762,NM71_01_04.jpg,Others
2763,NM71_01_05.jpg,Others
2764,NM71_01_06.jpg,Others
2765,NM71_01_07.jpg,Others
2766,NM71_01_08.jpg,Others
2767,NM71_01_09.jpg,Others
2768,NM71_01_10.jpg,Others
2769,NM71_01_11.jpg,Others
2770,NM71_01_12.jpg,Others
2771,NM71_01_13.jpg,Others
2772,NM72_01_00.jpg,Others
2773,NM72_01_01.jpg,Others
2774,NM72_01_02.jpg,Others
2775,NM72_01_03.jpg,Others
2776,NM72_01_04.jpg,Others
2777,NM72_01_05.jpg,Others
2778,NM72_01_06.jpg,Others
2779,NM72_01_07.jpg,Others
2780,NM72_01_08.jpg,Others
2781,NM72_01_09.jpg,Others
2782,NM72_01_10.jpg,Others
2783,NM72_01_11.jpg,Others
2784,NM72_01_12.jpg,Others
2785,NM72_01_13.jpg,Others
2786,NM73_01_00.jpg,Others
2787,NM73_01_01.jpg,Others
2788,NM73_01_02.jpg,Others
2789,NM73_01_03.jpg,Others
2790,NM73_01_04.jpg,Others
2791,NM73_01_05.jpg,Others
2792,NM73_01_06.jpg,Others
2793,NM73_01_07.jpg,Others
2794,NM73_01_08.jpg,Others
2795,NM73_01_09.jpg,Others
2796,NM73_01_10.jpg,Others
2797,NM73_01_11.jpg,Others
2798,NM73_01_12.jpg,Others
2799,NM73_01_13.jpg,Others
2800,NM74_01_00.jpg,Others
2801,NM74_01_01.jpg,Others
2802,NM74_01_02.jpg,Others
2803,NM74_01_03.jpg,Others
2804,NM74_01_04.jpg,Others
2805,NM74_01_05.jpg,Others
2806,NM74_01_06.jpg,Others
2807,NM74_01_07.jpg,Others
2808,NM74_01_08.jpg,Others
2809,NM74_01_09.jpg,Others
2810,NM74_01_10.jpg,Others
2811,NM74_01_11.jpg,Others
2812,NM74_01_12.jpg,Others
2813,NM74_01_13.jpg,Others
2814,NM75_01_00.jpg,Others
2815,NM75_01_01.jpg,Others
2816,NM75_01_02.jpg,Others
2817,NM75_01_03.jpg,Others
2818,NM75_01_04.jpg,Others
2819,NM75_01_05.jpg,Others
2820,NM75_01_06.jpg,Others
2821,NM75_01_07.jpg,Others
2822,NM75_01_08.jpg,Others
2823,NM75_01_09.jpg,Others
2824,NM75_01_10.jpg,Others
2825,NM75_01_11.jpg,Others
2826,NM75_01_12.jpg,Others
2827,NM75_01_13.jpg,Others
2828,NM76_01_00.jpg,Others
2829,NM76_01_01.jpg,Others
2830,NM76_01_02.jpg,Others
2831,NM76_01_03.jpg,Others
2832,NM76_01_04.jpg,Others
2833,NM76_01_05.jpg,Others
2834,NM76_01_06.jpg,Others
2835,NM76_01_07.jpg,Others
2836,NM76_01_08.jpg,Others
2837,NM76_01_09.jpg,Others
2838,NM76_01_10.jpg,Others
2839,NM76_01_11.jpg,Others
2840,NM76_01_12.jpg,Others
2841,NM76_01_13.jpg,Others
2842,NM77_01_00.jpg,Others
2843,NM77_01_01.jpg,Others
2844,NM77_01_02.jpg,Others
2845,NM77_01_03.jpg,Others
2846,NM77_01_04.jpg,Others
2847,NM77_01_05.jpg,Others
2848,NM77_01_06.jpg,Others
2849,NM77_01_07.jpg,Others
2850,NM77_01_08.jpg,Others
2851,NM77_01_09.jpg,Others
2852,NM77_01_10.jpg,Others
2853,NM77_01_11.jpg,Others
2854,NM77_01_12.jpg,Others
2855,NM77_01_13.jpg,Others
2856,NM78_01_00.jpg,Others
2857,NM78_01_01.jpg,Others
2858,NM78_01_02.jpg,Others
2859,NM78_01_03.jpg,Others
2860,NM78_01_04.jpg,Others
2861,NM78_01_05.jpg,Others
2862,NM78_01_06.jpg,Others
2863,NM78_01_07.jpg,Others
2864,NM78_01_08.jpg,Others
2865,NM78_01_09.jpg,Others
2866,NM78_01_10.jpg,Others
2867,NM78_01_11.jpg,Others
2868,NM78_01_12.jpg,Others
2869,NM78_01_13.jpg,Others
2870,NM79_01_00.jpg,Others
2871,NM79_01_01.jpg,Others
2872,NM79_01_02.jpg,Others
2873,NM79_01_03.jpg,Others
2874,NM79_01_04.jpg,Others
2875,NM79_01_05.jpg,Others
2876,NM79_01_06.jpg,Others
2877,NM79_01_07.jpg,Others
2878,NM79_01_08.jpg,Others
2879,NM79_01_09.jpg,Others
2880,NM79_01_10.jpg,Others
2881,NM79_01_11.jpg,Others
2882,NM79_01_12.jpg,Others
2883,NM79_01_13.jpg,Others
2884,NM80_01_00.jpg,Others
2885,NM80_01_01.jpg,Others
2886,NM80_01_02.jpg,Others
2887,NM80_01_03.jpg,Others
2888,NM80_01_04.jpg,Others
2889,NM80_01_05.jpg,Others
2890,NM80_01_06.jpg,Others
2891,NM80_01_07.jpg,Others
2892,NM80_01_08.jpg,Others
2893,NM80_01_09.jpg,Others
2894,NM80_01_10.jpg,Others
2895,NM80_01_11.jpg,Others
2896,NM80_01_12.jpg,Others
2897,NM80_01_13.jpg,Others
2898,NM81_01_00.jpg,Others
2899,NM81_01_01.jpg,Others
2900,NM81_01_02.jpg,Others
2901,NM81_01_03.jpg,Others
2902,NM81_01_04.jpg,Others
2903,NM81_01_05.jpg,Others
2904,NM81_01_06.jpg,Others
2905,NM81_01_07.jpg,Others
2906,NM81_01_08.jpg,Others
2907,NM81_01_09.jpg,Others
2908,NM81_01_10.jpg,Others
2909,NM81_01_11.jpg,Others
2910,NM81_01_12.jpg,Others
2911,NM81_01_13.jpg,Others
2912,NM82_01_00.jpg,Others
2913,NM82_01_01.jpg,Others
2914,NM82_01_02.jpg,Others
2915,NM82_01_03.jpg,Others
2916,NM82_01_04.jpg,Others
2917,NM82_01_05.jpg,Others
2918,NM82_01_06.jpg,Others
2919,NM82_01_07.jpg,Others
2920,NM82_01_08.jpg,Others
2921,NM82_01_09.jpg,Others
2922,NM82_01_10.jpg,Others
2923,NM82_01_11.jpg,Others
2924,NM82_01_12.jpg,Others
2925,NM82_01_13.jpg,Others
2926,NM83_01_00.jpg,Others
2927,NM83_01_01.jpg,Others
2928,NM83_01_02.jpg,Others
2929,NM83_01_03.jpg,Others
2930,NM83_01_04.jpg,Others
2931,NM83_01_05.jpg,Others
2932,NM83_01_06.jpg,Others
2933,NM83_01_07.jpg,Others
2934,NM83_01_08.jpg,Others
2935,NM83_01_09.jpg,Others
2936,NM83_01_10.jpg,Others
2937,NM83_01_11.jpg,Others
2938,NM83_01_12.jpg,Others
2939,NM83_01_13.jpg,Others
2940,NM84_01_00.jpg,Others
2941,NM84_01_01.jpg,Others
2942,NM84_01_02.jpg,Others
2943,NM84_01_03.jpg,Others
2944,NM84_01_04.jpg,Others
2945,NM84_01_05.jpg,Others
2946,NM84_01_06.jpg,Others
2947,NM84_01_07.jpg,Others
2948,NM84_01_08.jpg,Others
2949,NM84_01_09.jpg,Others
2950,NM84_01_10.jpg,Others
2951,NM84_01_11.jpg,Others
2952,NM84_01_12.jpg,Others
2953,NM84_01_13.jpg,Others
2954,NM85_01_00.jpg,Others
2955,NM85_01_01.jpg,Others
2956,NM85_01_02.jpg,Others
2957,NM85_01_03.jpg,Others
2958,NM85_01_04.jpg,Others
2959,NM85_01_05.jpg,Others
2960,NM85_01_06.jpg,Others
2961,NM85_01_07.jpg,Others
2962,NM85_01_08.jpg,Others
2963,NM85_01_09.jpg,Others
2964,NM85_01_10.jpg,Others
2965,NM85_01_11.jpg,Others
2966,NM85_01_12.jpg,Others
2967,NM85_01_13.jpg,Others
2968,NM86_01_00.jpg,Others
2969,NM86_01_01.jpg,Others
2970,NM86_01_02.jpg,Others
2971,NM86_01_03.jpg,Others
2972,NM86_01_04.jpg,Others
2973,NM86_01_05.jpg,Others
2974,NM86_01_06.jpg,Others
2975,NM86_01_07.jpg,Others
2976,NM86_01_08.jpg,Others
2977,NM86_01_09.jpg,Others
2978,NM86_01_10.jpg,Others
2979,NM86_01_11.jpg,Others
2980,NM86_01_12.jpg,Others
2981,NM86_01_13.jpg,Others
2982,NM87_01_00.jpg,Others
2983,NM87_01_01.jpg,Others
2984,NM87_01_02.jpg,Others
2985,NM87_01_03.jpg,Others
2986,NM87_01_04.jpg,Others
2987,NM87_01_05.jpg,Others
2988,NM87_01_06.jpg,Others
2989,NM87_01_07.jpg,Others
2990,NM87_01_08.jpg,Others
2991,NM87_01_09.jpg,Others
2992,NM87_01_10.jpg,Others
2993,NM87_01_11.jpg,Others
2994,NM87_01_12.jpg,Others
2995,NM87_01_13.jpg,Others
2996,NM88_01_00.jpg,Others
2997,NM88_01_01.jpg,Others
2998,NM88_01_02.jpg,Others
2999,NM88_01_03.jpg,Others
3000,NM88_01_04.jpg,Others
3001,NM88_01_05.jpg,Others
3002,NM88_01_06.jpg,Others
3003,NM88_01_07.jpg,Others
3004,NM88_01_08.jpg,Others
3005,NM88_01_09.jpg,Others
3006,NM88_01_10.jpg,Others
3007,NM88_01_11.jpg,Others
3008,NM88_01_12.jpg,Others
3009,NM88_01_13.jpg,Others
3010,NM89_01_00.jpg,Others
3011,NM89_01_01.jpg,Others
3012,NM89_01_02.jpg,Others
3013,NM89_01_03.jpg,Others
3014,NM89_01_04.jpg,Others
3015,NM89_01_05.jpg,Others
3016,NM89_01_06.jpg,Others
3017,NM89_01_07.jpg,Others
3018,NM89_01_08.jpg,Others
3019,NM89_01_09.jpg,Others
3020,NM89_01_10.jpg,Others
3021,NM89_01_11.jpg,Others
3022,NM89_01_12.jpg,Others
3023,NM89_01_13.jpg,Others
3024,NM90_01_00.jpg,Others
3025,NM90_01_01.jpg,Others
3026,NM90_01_02.jpg,Others
3027,NM90_01_03.jpg,Others
3028,NM90_01_04.jpg,Others
3029,NM90_01_05.jpg,Others
3030,NM90_01_06.jpg,Others
3031,NM90_01_07.jpg,Others
3032,NM90_01_08.jpg,Others
3033,NM90_01_09.jpg,Others
3034,NM90_01_10.jpg,Others
3035,NM90_01_11.jpg,Others
3036,NM90_01_12.jpg,Others
3037,NM90_01_13.jpg,Others
3038,NM91_01_00.jpg,Others
3039,NM91_01_01.jpg,Others
3040,NM91_01_02.jpg,Others
3041,NM91_01_03.jpg,Others
3042,NM91_01_04.jpg,Others
3043,NM91_01_05.jpg,Others
3044,NM91_01_06.jpg,Others
3045,NM91_01_07.jpg,Others
3046,NM91_01_08.jpg,Others
3047,NM91_01_09.jpg,Others
3048,NM91_01_10.jpg,Others
3049,NM91_01_11.jpg,Others
3050,NM91_01_12.jpg,Others
3051,NM91_01_13.jpg,Others
3052,NM91_02_00.jpg,Others
3053,NM91_02_01.jpg,Others
3054,NM91_02_02.jpg,Others
3055,NM91_02_03.jpg,Others
3056,NM91_02_04.jpg,Others
3057,NM91_02_05.jpg,Others
3058,NM91_02_06.jpg,Others
3059,NM91_02_07.jpg,Others
3060,NM91_02_08.jpg,Others
3061,NM91_02_09.jpg,Others
3062,NM91_02_10.jpg,Others
3063,NM91_02_11.jpg,Others
3064,NM91_02_12.jpg,Others
3065,NM91_02_13.jpg,Others
3066,NM93_01_00.jpg,Others
3067,NM93_01_01.jpg,Others
3068,NM93_01_02.jpg,Others
3069,NM93_01_03.jpg,Others
3070,NM93_01_04.jpg,Others
3071,NM93_01_05.jpg,Others
3072,NM93_01_06.jpg,Others
3073,NM93_01_07.jpg,Others
3074,NM93_01_08.jpg,Others
3075,NM93_01_09.jpg,Others
3076,NM93_01_10.jpg,Others
3077,NM93_01_11.jpg,Others
3078,NM93_01_12.jpg,Others
3079,NM93_01_13.jpg,Others
3080,NM94_01_00.jpg,Others
3081,NM94_01_01.jpg,Others
3082,NM94_01_02.jpg,Others
3083,NM94_01_03.jpg,Others
3084,NM94_01_04.jpg,Others
3085,NM94_01_05.jpg,Others
3086,NM94_01_06.jpg,Others
3087,NM94_01_07.jpg,Others
3088,NM94_01_08.jpg,Others
3089,NM94_01_09.jpg,Others
3090,NM94_01_10.jpg,Others
3091,NM94_01_11.jpg,Others
3092,NM94_01_12.jpg,Others
3093,NM94_01_13.jpg,Others
3094,NM95_01_00.jpg,Others
3095,NM95_01_01.jpg,Others
3096,NM95_01_02.jpg,Others
3097,NM95_01_03.jpg,Others
3098,NM95_01_04.jpg,Others
3099,NM95_01_05.jpg,Others
3100,NM95_01_06.jpg,Others
3101,NM95_01_07.jpg,Others
3102,NM95_01_08.jpg,Others
3103,NM95_01_09.jpg,Others
3104,NM95_01_10.jpg,Others
3105,NM95_01_11.jpg,Others
3106,NM95_01_12.jpg,Others
3107,NM95_01_13.jpg,Others
3108,NM96_01_00.jpg,Others
3109,NM96_01_01.jpg,Others
3110,NM96_01_02.jpg,Others
3111,NM96_01_03.jpg,Others
3112,NM96_01_04.jpg,Others
3113,NM96_01_05.jpg,Others
3114,NM96_01_06.jpg,Others
3115,NM96_01_07.jpg,Others
3116,NM96_01_08.jpg,Others
3117,NM96_01_09.jpg,Others
3118,NM96_01_10.jpg,Others
3119,NM96_01_11.jpg,Others
3120,NM96_01_12.jpg,Others
3121,NM96_01_13.jpg,Others
3122,NM97_01_00.jpg,Others
3123,NM97_01_01.jpg,Others
3124,NM97_01_02.jpg,Others
3125,NM97_01_03.jpg,Others
3126,NM97_01_04.jpg,Others
3127,NM97_01_05.jpg,Others
3128,NM97_01_06.jpg,Others
3129,NM97_01_07.jpg,Others
3130,NM97_01_08.jpg,Others
3131,NM97_01_09.jpg,Others
3132,NM97_01_10.jpg,Others
3133,NM97_01_11.jpg,Others
3134,NM97_01_12.jpg,Others
3135,NM97_01_13.jpg,Others
3136,NM98_01_00.jpg,Others
3137,NM98_01_01.jpg,Others
3138,NM98_01_02.jpg,Others
3139,NM98_01_03.jpg,Others
3140,NM98_01_04.jpg,Others
3141,NM98_01_05.jpg,Others
3142,NM98_01_06.jpg,Others
3143,NM98_01_07.jpg,Others
3144,NM98_01_08.jpg,Others
3145,NM98_01_09.jpg,Others
3146,NM98_01_10.jpg,Others
3147,NM98_01_11.jpg,Others
3148,NM98_01_12.jpg,Others
3149,NM98_01_13.jpg,Others
3150,NM98_02_00.jpg,Others
3151,NM98_02_01.jpg,Others
3152,NM98_02_02.jpg,Others
3153,NM98_02_03.jpg,Others
3154,NM98_02_04.jpg,Others
3155,NM98_02_05.jpg,Others
3156,NM98_02_06.jpg,Others
3157,NM98_02_07.jpg,Others
3158,NM98_02_08.jpg,Others
3159,NM98_02_09.jpg,Others
3160,NM98_02_10.jpg,Others
3161,NM98_02_11.jpg,Others
3162,NM98_02_12.jpg,Others
3163,NM98_02_13.jpg,Others
3164,NM99_01_00.jpg,Others
3165,NM99_01_01.jpg,Others
3166,NM99_01_02.jpg,Others
3167,NM99_01_03.jpg,Others
3168,NM99_01_04.jpg,Others
3169,NM99_01_05.jpg,Others
3170,NM99_01_06.jpg,Others
3171,NM99_01_07.jpg,Others
3172,NM99_01_08.jpg,Others
3173,NM99_01_09.jpg,Others
3174,NM99_01_10.jpg,Others
3175,NM99_01_11.jpg,Others
3176,NM99_01_12.jpg,Others
3177,NM99_01_13.jpg,Others
3178,NM99_02_00.jpg,Others
3179,NM99_02_01.jpg,Others
3180,NM99_02_02.jpg,Others
3181,NM99_02_03.jpg,Others
3182,NM99_02_04.jpg,Others
3183,NM99_02_05.jpg,Others
3184,NM99_02_06.jpg,Others
3185,NM99_02_07.jpg,Others
3186,NM99_02_08.jpg,Others
3187,NM99_02_09.jpg,Others
3188,NM99_02_10.jpg,Others
3189,NM99_02_11.jpg,Others
3190,NM99_02_12.jpg,Others
3191,NM99_02_13.jpg,Others
